http_interactions:
- request:
    method: get
    uri: https://api.laji.fi/v0/warehouse/query/unit/list?page=1&pageSize=1&selected=unit.unitId&personEmail=noreply%40laji.fi&access_token=<finbif_token>
    body:
      encoding: ''
      string: ''
    headers:
      Content-Type: ''
      Accept: application/json
  response:
    status:
      status_code: 200
      category: Success
      reason: OK
      message: 'Success: (200) OK'
    headers:
      date: Wed, 14 Apr 2021 07:52:46 GMT
      content-type: application/json;charset=utf-8
      transfer-encoding: chunked
      access-control-allow-origin: '*'
      access-control-allow-credentials: 'true'
      x-frame-options: SAMEORIGIN
      x-download-options: noopen
      via: 1.1 dw.laji.fi
      vary: Accept-Encoding
      content-encoding: gzip
      cache-control: public
      x-xss-protection: 1;mode=block
      x-content-type-options: nosniff
      strict-transport-security: max-age=31536000;includeSubDomains;preload
      referrer-policy: no-referrer-when-downgrade
    body:
      encoding: UTF-8
      file: no
      string: '{"currentPage":1,"nextPage":2,"lastPage":38830685,"pageSize":1,"total":38830685,"results":[{"unit":{"unitId":"http://tun.fi/KE.176/607697dbd5de7f1e7e50dd59#Unit5"}}]}'
  recorded_at: 2021-04-14 07:52:46 GMT
  recorded_with: vcr/0.6.0, webmockr/0.8.0
