http_interactions:
- request:
    method: get
    uri: https://api.laji.fi/v0/warehouse/query/unit/list?time=2001%2F2008&selected=unit.unitId%2Cgathering.conversions.wgs84CenterPoint.lat%2Cgathering.conversions.wgs84CenterPoint.lon%2Cunit.quality.documentGatheringUnitQualityIssues%2Cunit.interpretations.needsCheck%2Cunit.interpretations.needsIdentification%2Cunit.interpretations.reliability%2Cunit.interpretations.recordQuality%2Cgathering.eventDate.begin%2Cgathering.eventDate.end%2Cgathering.hourBegin%2Cgathering.hourEnd%2Cgathering.minutesBegin%2Cgathering.minutesEnd%2Cgathering.conversions.day%2Cgathering.conversions.month%2Cunit.interpretations.individualCount%2Cunit.abundanceString%2Cgathering.interpretations.coordinateAccuracy%2Cunit.linkings.taxon.scientificName%2Cunit.taxonVerbatim%2Cunit.linkings.taxon.scientificNameAuthorship%2Cunit.author%2Cdocument.sourceId&page=1&pageSize=10&access_token=<finbif_token>
    body:
      encoding: ''
      string: ''
    headers:
      Content-Type: ''
      Accept: application/json
  response:
    status:
      status_code: 200
      category: Success
      reason: OK
      message: 'Success: (200) OK'
    headers:
      date: Thu, 30 Mar 2023 06:40:45 GMT
      content-type: application/json;charset=utf-8
      transfer-encoding: chunked
      access-control-allow-origin: '*'
      via: 1.0 dw.laji.fi
      cache-control: no-store
      x-xss-protection: 1;mode=block
      x-content-type-options: nosniff
      strict-transport-security: max-age=31536000;includeSubDomains;preload
      referrer-policy: no-referrer-when-downgrade
    body:
      encoding: ''
      file: no
      string: '{"currentPage":1,"nextPage":2,"lastPage":767218,"pageSize":10,"total":7672179,"results":[{"unit":{"interpretations":{"individualCount":1,"needsCheck":false,"needsIdentification":false,"recordQuality":"NEUTRAL","reliability":"UNDEFINED"},"linkings":{"taxon":{"scientificName":"Actitis
        hypoleucos","scientificNameAuthorship":"(Linnaeus, 1758)"}},"quality":{"documentGatheringUnitQualityIssues":false},"taxonVerbatim":"Acthyp","unitId":"http://tun.fi/MHU.18777413"},"gathering":{"conversions":{"day":31,"month":12,"wgs84CenterPoint":{"lat":61.243567,"lon":24.668428}},"eventDate":{"begin":"2008-12-31","end":"2008-12-31"},"interpretations":{"coordinateAccuracy":10000}},"document":{"sourceId":"http://tun.fi/KE.7"}},{"unit":{"interpretations":{"individualCount":1,"needsCheck":false,"needsIdentification":false,"recordQuality":"NEUTRAL","reliability":"UNDEFINED"},"linkings":{"taxon":{"scientificName":"Aegithalos
        caudatus","scientificNameAuthorship":"(Linnaeus, 1758)"}},"quality":{"documentGatheringUnitQualityIssues":false},"taxonVerbatim":"Aegcau","unitId":"http://tun.fi/MHU.18777418"},"gathering":{"conversions":{"day":31,"month":12,"wgs84CenterPoint":{"lat":61.243567,"lon":24.668428}},"eventDate":{"begin":"2008-12-31","end":"2008-12-31"},"interpretations":{"coordinateAccuracy":10000}},"document":{"sourceId":"http://tun.fi/KE.7"}},{"unit":{"interpretations":{"individualCount":1,"needsCheck":false,"needsIdentification":false,"recordQuality":"NEUTRAL","reliability":"UNDEFINED"},"linkings":{"taxon":{"scientificName":"Anas
        crecca","scientificNameAuthorship":"Linnaeus, 1758"}},"quality":{"documentGatheringUnitQualityIssues":false},"taxonVerbatim":"Anacre","unitId":"http://tun.fi/MHU.18777401"},"gathering":{"conversions":{"day":31,"month":12,"wgs84CenterPoint":{"lat":61.243567,"lon":24.668428}},"eventDate":{"begin":"2008-12-31","end":"2008-12-31"},"interpretations":{"coordinateAccuracy":10000}},"document":{"sourceId":"http://tun.fi/KE.7"}},{"unit":{"interpretations":{"individualCount":1,"needsCheck":false,"needsIdentification":false,"recordQuality":"NEUTRAL","reliability":"UNDEFINED"},"linkings":{"taxon":{"scientificName":"Anas
        penelope","scientificNameAuthorship":"(Linnaeus, 1758)"}},"quality":{"documentGatheringUnitQualityIssues":false},"taxonVerbatim":"Anapen","unitId":"http://tun.fi/MHU.18777404"},"gathering":{"conversions":{"day":31,"month":12,"wgs84CenterPoint":{"lat":61.243567,"lon":24.668428}},"eventDate":{"begin":"2008-12-31","end":"2008-12-31"},"interpretations":{"coordinateAccuracy":10000}},"document":{"sourceId":"http://tun.fi/KE.7"}},{"unit":{"interpretations":{"individualCount":1,"needsCheck":false,"needsIdentification":false,"recordQuality":"NEUTRAL","reliability":"UNDEFINED"},"linkings":{"taxon":{"scientificName":"Aythya
        fuligula","scientificNameAuthorship":"(Linnaeus, 1758)"}},"quality":{"documentGatheringUnitQualityIssues":false},"taxonVerbatim":"Aytful","unitId":"http://tun.fi/MHU.18777405"},"gathering":{"conversions":{"day":31,"month":12,"wgs84CenterPoint":{"lat":61.243567,"lon":24.668428}},"eventDate":{"begin":"2008-12-31","end":"2008-12-31"},"interpretations":{"coordinateAccuracy":10000}},"document":{"sourceId":"http://tun.fi/KE.7"}},{"unit":{"interpretations":{"individualCount":1,"needsCheck":false,"needsIdentification":false,"recordQuality":"NEUTRAL","reliability":"UNDEFINED"},"linkings":{"taxon":{"scientificName":"Carpodacus
        erythrinus","scientificNameAuthorship":"(Pallas, 1770)"}},"quality":{"documentGatheringUnitQualityIssues":false},"taxonVerbatim":"Carery","unitId":"http://tun.fi/MHU.18777421"},"gathering":{"conversions":{"day":31,"month":12,"wgs84CenterPoint":{"lat":61.243567,"lon":24.668428}},"eventDate":{"begin":"2008-12-31","end":"2008-12-31"},"interpretations":{"coordinateAccuracy":10000}},"document":{"sourceId":"http://tun.fi/KE.7"}},{"unit":{"interpretations":{"individualCount":1,"needsCheck":false,"needsIdentification":false,"recordQuality":"NEUTRAL","reliability":"UNDEFINED"},"linkings":{"taxon":{"scientificName":"Cuculus
        canorus","scientificNameAuthorship":"Linnaeus, 1758"}},"quality":{"documentGatheringUnitQualityIssues":false},"taxonVerbatim":"Cuccan","unitId":"http://tun.fi/MHU.18777414"},"gathering":{"conversions":{"day":31,"month":12,"wgs84CenterPoint":{"lat":61.243567,"lon":24.668428}},"eventDate":{"begin":"2008-12-31","end":"2008-12-31"},"interpretations":{"coordinateAccuracy":10000}},"document":{"sourceId":"http://tun.fi/KE.7"}},{"unit":{"interpretations":{"individualCount":1,"needsCheck":false,"needsIdentification":false,"recordQuality":"NEUTRAL","reliability":"UNDEFINED"},"linkings":{"taxon":{"scientificName":"Cygnus
        cygnus","scientificNameAuthorship":"(Linnaeus, 1758)"}},"quality":{"documentGatheringUnitQualityIssues":false},"taxonVerbatim":"Cygcyg","unitId":"http://tun.fi/MHU.18777400"},"gathering":{"conversions":{"day":31,"month":12,"wgs84CenterPoint":{"lat":61.243567,"lon":24.668428}},"eventDate":{"begin":"2008-12-31","end":"2008-12-31"},"interpretations":{"coordinateAccuracy":10000}},"document":{"sourceId":"http://tun.fi/KE.7"}},{"unit":{"interpretations":{"individualCount":1,"needsCheck":false,"needsIdentification":false,"recordQuality":"NEUTRAL","reliability":"UNDEFINED"},"linkings":{"taxon":{"scientificName":"Dendrocopos
        major","scientificNameAuthorship":"(Linnaeus, 1758)"}},"quality":{"documentGatheringUnitQualityIssues":false},"taxonVerbatim":"Denmaj","unitId":"http://tun.fi/MHU.18777415"},"gathering":{"conversions":{"day":31,"month":12,"wgs84CenterPoint":{"lat":61.243567,"lon":24.668428}},"eventDate":{"begin":"2008-12-31","end":"2008-12-31"},"interpretations":{"coordinateAccuracy":10000}},"document":{"sourceId":"http://tun.fi/KE.7"}},{"unit":{"interpretations":{"individualCount":1,"needsCheck":false,"needsIdentification":false,"recordQuality":"NEUTRAL","reliability":"UNDEFINED"},"linkings":{"taxon":{"scientificName":"Falco
        tinnunculus","scientificNameAuthorship":"Linnaeus, 1758"}},"quality":{"documentGatheringUnitQualityIssues":false},"taxonVerbatim":"Faltin","unitId":"http://tun.fi/MHU.18777407"},"gathering":{"conversions":{"day":31,"month":12,"wgs84CenterPoint":{"lat":61.243567,"lon":24.668428}},"eventDate":{"begin":"2008-12-31","end":"2008-12-31"},"interpretations":{"coordinateAccuracy":10000}},"document":{"sourceId":"http://tun.fi/KE.7"}}]}'
  recorded_at: 2023-03-30 06:40:45 GMT
  recorded_with: vcr/1.2.0, webmockr/0.9.0
