http_interactions:
- request:
    method: get
    uri: https://api.laji.fi/v0/taxa/search?query=Cygnus%20cygnus&matchType=exact&limit=1&access_token=<finbif_token>
    body:
      encoding: ''
      string: ''
    headers:
      Content-Type: ''
      Accept: application/json
  response:
    status:
      status_code: 200
      category: Success
      reason: OK
      message: 'Success: (200) OK'
    headers:
      date: Thu, 24 Nov 2022 08:04:11 GMT
      content-type: application/json; charset=utf-8
      content-length: '536'
      access-control-allow-origin: '*'
      access-control-allow-credentials: 'true'
      x-frame-options: SAMEORIGIN
      x-download-options: noopen
      etag: W/"218-vsYOflF5oSy5aobNfspTc/iji00"
      vary: Accept-Encoding
      cache-control: public
      x-xss-protection: 1;mode=block
      x-content-type-options: nosniff
      strict-transport-security: max-age=31536000;includeSubDomains;preload
      referrer-policy: no-referrer-when-downgrade
    body:
      encoding: ''
      file: no
      string: '[{"matchingName":"Cygnus cygnus","nameType":"MX.scientificName","id":"MX.26280","scientificName":"Cygnus
        cygnus","scientificNameAuthorship":"(Linnaeus, 1758)","taxonRank":"MX.species","cursiveName":true,"finnish":true,"species":true,"vernacularName":{"en":"Whooper
        Swan","sv":"sångsvan","fi":"laulujoutsen"},"informalGroups":[{"id":"MVL.1","name":{"en":"Birds","sv":"Fåglar","fi":"Linnut"}},{"id":"MVL.1241","name":{"en":"Waterbirds","fi":"Vesilinnut","sv":"Vattenfåglar"}}],"kingdomScientificName":"Animalia","type":"exactMatches"}]'
  recorded_at: 2022-11-24 08:04:12 GMT
  recorded_with: vcr/1.2.0, webmockr/0.8.2
- request:
    method: get
    uri: https://api.laji.fi/v0/warehouse/query/unit/list?taxonId=MX.26280&countryId=ML.206&selected=unit.unitId%2Cdocument.loadDate&orderBy=document.loadDate%20DESC&page=1&pageSize=1&access_token=<finbif_token>
    body:
      encoding: ''
      string: ''
    headers:
      Content-Type: ''
      Accept: application/json
  response:
    status:
      status_code: 200
      category: Success
      reason: OK
      message: 'Success: (200) OK'
    headers:
      date: Thu, 24 Nov 2022 08:04:12 GMT
      content-type: application/json;charset=utf-8
      transfer-encoding: chunked
      access-control-allow-origin: '*'
      via: 1.0 dw.laji.fi
      cache-control: no-store
      x-xss-protection: 1;mode=block
      x-content-type-options: nosniff
      strict-transport-security: max-age=31536000;includeSubDomains;preload
      referrer-policy: no-referrer-when-downgrade
    body:
      encoding: ''
      file: no
      string: '{"currentPage":1,"nextPage":2,"lastPage":77798,"pageSize":1,"total":77798,"results":[{"unit":{"unitId":"http://tun.fi/HR.4412/637ec448f31b7_U"},"document":{"loadDate":"2022-11-24"}}]}'
  recorded_at: 2022-11-24 08:04:12 GMT
  recorded_with: vcr/1.2.0, webmockr/0.8.2
