http_interactions:
- request:
    method: get
    uri: https://apitest.laji.fi/v0/warehouse/query/unit/list?selected=unit.unitId%2Cgathering.conversions.wgs84CenterPoint.lat%2Cgathering.conversions.wgs84CenterPoint.lon%2Cunit.quality.documentGatheringUnitQualityIssues%2Cunit.interpretations.needsCheck%2Cunit.interpretations.needsIdentification%2Cunit.interpretations.reliability%2Cunit.interpretations.recordQuality%2Cgathering.eventDate.begin%2Cgathering.eventDate.end%2Cgathering.hourBegin%2Cgathering.hourEnd%2Cgathering.minutesBegin%2Cgathering.minutesEnd%2Cgathering.conversions.day%2Cgathering.conversions.month%2Cunit.interpretations.individualCount%2Cunit.abundanceString%2Cgathering.interpretations.coordinateAccuracy%2Cunit.linkings.taxon.scientificName%2Cunit.taxonVerbatim%2Cunit.linkings.taxon.scientificNameAuthorship%2Cunit.author%2Cdocument.sourceId&page=1&pageSize=10&access_token=<finbif_token>
    body:
      encoding: ''
      string: ''
    headers:
      Content-Type: ''
      Accept: application/json
  response:
    status:
      status_code: 200
      category: Success
      reason: OK
      message: 'Success: (200) OK'
    headers:
      date: Mon, 28 Aug 2023 11:01:37 GMT
      content-type: application/json;charset=utf-8
      transfer-encoding: chunked
      access-control-allow-origin: '*'
      via: 1.0 staging.laji.fi
      cache-control: no-store
      x-frame-options: DENY
      x-xss-protection: 1;mode=block
      x-content-type-options: nosniff
      strict-transport-security: max-age=31536000;includeSubDomains;preload
      referrer-policy: no-referrer-when-downgrade
    body:
      encoding: ''
      file: no
      string: '{"currentPage":1,"nextPage":2,"lastPage":262126,"pageSize":10,"total":2621259,"cacheTimestamp":1693220355,"results":[{"unit":{"interpretations":{"individualCount":1,"needsCheck":false,"needsIdentification":false,"recordQuality":"NEUTRAL","reliability":"UNDEFINED"},"linkings":{"taxon":{"scientificName":"Parus
        major","scientificNameAuthorship":"Linnaeus, 1758"}},"quality":{"documentGatheringUnitQualityIssues":false},"taxonVerbatim":"talitiainen","unitId":"http://tun.fi/KE.176/64e725902d0ec27bece0497f#Unit1"},"gathering":{"conversions":{"day":24,"month":8,"wgs84CenterPoint":{"lat":61.179,"lon":23.875}},"eventDate":{"begin":"2023-08-24","end":"2023-08-24"},"interpretations":{"coordinateAccuracy":1}},"document":{"sourceId":"http://tun.fi/KE.176"}},{"unit":{"abundanceString":"1","interpretations":{"individualCount":1,"needsCheck":false,"needsIdentification":false,"recordQuality":"NEUTRAL","reliability":"UNDEFINED"},"linkings":{"taxon":{"scientificName":"Pica
        pica","scientificNameAuthorship":"(Linnaeus, 1758)"}},"quality":{"documentGatheringUnitQualityIssues":false},"taxonVerbatim":"harakka","unitId":"http://tun.fi/JX.298355#3"},"gathering":{"conversions":{"day":10,"month":8,"wgs84CenterPoint":{"lat":60.241027,"lon":25.09147}},"eventDate":{"begin":"2023-08-10","end":"2023-08-10"},"hourBegin":9,"hourEnd":9,"interpretations":{"coordinateAccuracy":10},"minutesBegin":47,"minutesEnd":48},"document":{"sourceId":"http://tun.fi/KE.1141"}},{"unit":{"interpretations":{"individualCount":1,"needsCheck":false,"needsIdentification":false,"recordQuality":"NEUTRAL","reliability":"UNDEFINED"},"linkings":{"taxon":{"scientificName":"Corvus
        corone","scientificNameAuthorship":"Linnaeus, 1758"}},"quality":{"documentGatheringUnitQualityIssues":false},"taxonVerbatim":"varis","unitId":"http://tun.fi/JX.298355#5"},"gathering":{"conversions":{"day":10,"month":8,"wgs84CenterPoint":{"lat":60.241857,"lon":25.089933}},"eventDate":{"begin":"2023-08-10","end":"2023-08-10"},"hourBegin":9,"hourEnd":9,"interpretations":{"coordinateAccuracy":1},"minutesBegin":47,"minutesEnd":48},"document":{"sourceId":"http://tun.fi/KE.1141"}},{"unit":{"interpretations":{"individualCount":1,"needsCheck":false,"needsIdentification":false,"recordQuality":"NEUTRAL","reliability":"UNDEFINED"},"linkings":{"taxon":{"scientificName":"Lupinus
        polyphyllus","scientificNameAuthorship":"Lindl."}},"quality":{"documentGatheringUnitQualityIssues":false},"taxonVerbatim":"komealupiini","unitId":"http://tun.fi/HR.4114/2314_U"},"gathering":{"conversions":{"day":8,"month":8,"wgs84CenterPoint":{"lat":61.466593,"lon":23.727776}},"eventDate":{"begin":"2023-08-08","end":"2023-08-08"},"interpretations":{"coordinateAccuracy":10}},"document":{"sourceId":"http://tun.fi/KE.1462"}},{"unit":{"interpretations":{"individualCount":1,"needsCheck":false,"needsIdentification":false,"recordQuality":"NEUTRAL","reliability":"UNDEFINED"},"linkings":{"taxon":{"scientificName":"Heracleum
        persicum -ryhmä"}},"quality":{"documentGatheringUnitQualityIssues":false},"taxonVerbatim":"jättiputket","unitId":"http://tun.fi/HR.4114/2313_U"},"gathering":{"conversions":{"day":7,"month":8,"wgs84CenterPoint":{"lat":61.459898,"lon":23.789656}},"eventDate":{"begin":"2023-08-07","end":"2023-08-07"},"interpretations":{"coordinateAccuracy":10}},"document":{"sourceId":"http://tun.fi/KE.1462"}},{"unit":{"interpretations":{"individualCount":1,"needsCheck":false,"needsIdentification":false,"recordQuality":"NEUTRAL","reliability":"UNDEFINED"},"linkings":{"taxon":{"scientificName":"Lupinus
        polyphyllus","scientificNameAuthorship":"Lindl."}},"quality":{"documentGatheringUnitQualityIssues":false},"taxonVerbatim":"komealupiini","unitId":"http://tun.fi/HR.4114/2310_U"},"gathering":{"conversions":{"day":7,"month":8,"wgs84CenterPoint":{"lat":61.509203,"lon":23.66817}},"eventDate":{"begin":"2023-08-07","end":"2023-08-07"},"interpretations":{"coordinateAccuracy":10}},"document":{"sourceId":"http://tun.fi/KE.1462"}},{"unit":{"interpretations":{"individualCount":1,"needsCheck":false,"needsIdentification":false,"recordQuality":"NEUTRAL","reliability":"UNDEFINED"},"linkings":{"taxon":{"scientificName":"Lupinus
        polyphyllus","scientificNameAuthorship":"Lindl."}},"quality":{"documentGatheringUnitQualityIssues":false},"taxonVerbatim":"komealupiini","unitId":"http://tun.fi/HR.4114/2312_U"},"gathering":{"conversions":{"day":7,"month":8,"wgs84CenterPoint":{"lat":61.516972,"lon":23.651159}},"eventDate":{"begin":"2023-08-07","end":"2023-08-07"},"interpretations":{"coordinateAccuracy":10}},"document":{"sourceId":"http://tun.fi/KE.1462"}},{"unit":{"interpretations":{"individualCount":1,"needsCheck":false,"needsIdentification":false,"recordQuality":"NEUTRAL","reliability":"UNDEFINED"},"linkings":{"taxon":{"scientificName":"Rosa
        rugosa","scientificNameAuthorship":"Thunb."}},"quality":{"documentGatheringUnitQualityIssues":false},"taxonVerbatim":"kurtturuusu","unitId":"http://tun.fi/HR.4114/2307_U"},"gathering":{"conversions":{"day":7,"month":8,"wgs84CenterPoint":{"lat":61.509753,"lon":23.667866}},"eventDate":{"begin":"2023-08-07","end":"2023-08-07"},"interpretations":{"coordinateAccuracy":10}},"document":{"sourceId":"http://tun.fi/KE.1462"}},{"unit":{"interpretations":{"individualCount":1,"needsCheck":false,"needsIdentification":false,"recordQuality":"NEUTRAL","reliability":"UNDEFINED"},"linkings":{"taxon":{"scientificName":"Rosa
        rugosa","scientificNameAuthorship":"Thunb."}},"quality":{"documentGatheringUnitQualityIssues":false},"taxonVerbatim":"kurtturuusu","unitId":"http://tun.fi/HR.4114/2308_U"},"gathering":{"conversions":{"day":7,"month":8,"wgs84CenterPoint":{"lat":61.509833,"lon":23.667463}},"eventDate":{"begin":"2023-08-07","end":"2023-08-07"},"interpretations":{"coordinateAccuracy":10}},"document":{"sourceId":"http://tun.fi/KE.1462"}},{"unit":{"interpretations":{"individualCount":1,"needsCheck":false,"needsIdentification":false,"recordQuality":"NEUTRAL","reliability":"UNDEFINED"},"linkings":{"taxon":{"scientificName":"Rosa
        rugosa","scientificNameAuthorship":"Thunb."}},"quality":{"documentGatheringUnitQualityIssues":false},"taxonVerbatim":"kurtturuusu","unitId":"http://tun.fi/HR.4114/2309_U"},"gathering":{"conversions":{"day":7,"month":8,"wgs84CenterPoint":{"lat":61.509814,"lon":23.667766}},"eventDate":{"begin":"2023-08-07","end":"2023-08-07"},"interpretations":{"coordinateAccuracy":10}},"document":{"sourceId":"http://tun.fi/KE.1462"}}]}'
  recorded_at: 2023-08-28 11:01:37 GMT
  recorded_with: vcr/1.2.2, webmockr/0.9.0
- request:
    method: get
    uri: https://apitest.laji.fi/v0/warehouse/query/unit/list?selected=unit.unitId%2Cgathering.conversions.wgs84CenterPoint.lat%2Cgathering.conversions.wgs84CenterPoint.lon%2Cunit.quality.documentGatheringUnitQualityIssues%2Cunit.interpretations.needsCheck%2Cunit.interpretations.needsIdentification%2Cunit.interpretations.reliability%2Cunit.interpretations.recordQuality%2Cgathering.eventDate.begin%2Cgathering.eventDate.end%2Cgathering.hourBegin%2Cgathering.hourEnd%2Cgathering.minutesBegin%2Cgathering.minutesEnd%2Cgathering.conversions.day%2Cgathering.conversions.month%2Cunit.interpretations.individualCount%2Cunit.abundanceString%2Cgathering.interpretations.coordinateAccuracy%2Cunit.linkings.taxon.scientificName%2Cunit.taxonVerbatim%2Cunit.linkings.taxon.scientificNameAuthorship%2Cunit.author%2Cdocument.sourceId&page=1&pageSize=10&access_token=<finbif_token>
    body:
      encoding: ''
      string: ''
    headers:
      Content-Type: ''
      Accept: application/json
  response:
    status:
      status_code: 200
      category: Success
      reason: OK
      message: 'Success: (200) OK'
    headers:
      date: Mon, 28 Aug 2023 11:01:37 GMT
      content-type: application/json;charset=utf-8
      transfer-encoding: chunked
      access-control-allow-origin: '*'
      via: 1.0 staging.laji.fi
      cache-control: no-store
      x-frame-options: DENY
      x-xss-protection: 1;mode=block
      x-content-type-options: nosniff
      strict-transport-security: max-age=31536000;includeSubDomains;preload
      referrer-policy: no-referrer-when-downgrade
    body:
      encoding: ''
      file: no
      string: '{"currentPage":1,"nextPage":2,"lastPage":262126,"pageSize":10,"total":2621259,"cacheTimestamp":1693220355,"results":[{"unit":{"interpretations":{"individualCount":1,"needsCheck":false,"needsIdentification":false,"recordQuality":"NEUTRAL","reliability":"UNDEFINED"},"linkings":{"taxon":{"scientificName":"Parus
        major","scientificNameAuthorship":"Linnaeus, 1758"}},"quality":{"documentGatheringUnitQualityIssues":false},"taxonVerbatim":"talitiainen","unitId":"http://tun.fi/KE.176/64e725902d0ec27bece0497f#Unit1"},"gathering":{"conversions":{"day":24,"month":8,"wgs84CenterPoint":{"lat":61.179,"lon":23.875}},"eventDate":{"begin":"2023-08-24","end":"2023-08-24"},"interpretations":{"coordinateAccuracy":1}},"document":{"sourceId":"http://tun.fi/KE.176"}},{"unit":{"abundanceString":"1","interpretations":{"individualCount":1,"needsCheck":false,"needsIdentification":false,"recordQuality":"NEUTRAL","reliability":"UNDEFINED"},"linkings":{"taxon":{"scientificName":"Pica
        pica","scientificNameAuthorship":"(Linnaeus, 1758)"}},"quality":{"documentGatheringUnitQualityIssues":false},"taxonVerbatim":"harakka","unitId":"http://tun.fi/JX.298355#3"},"gathering":{"conversions":{"day":10,"month":8,"wgs84CenterPoint":{"lat":60.241027,"lon":25.09147}},"eventDate":{"begin":"2023-08-10","end":"2023-08-10"},"hourBegin":9,"hourEnd":9,"interpretations":{"coordinateAccuracy":10},"minutesBegin":47,"minutesEnd":48},"document":{"sourceId":"http://tun.fi/KE.1141"}},{"unit":{"interpretations":{"individualCount":1,"needsCheck":false,"needsIdentification":false,"recordQuality":"NEUTRAL","reliability":"UNDEFINED"},"linkings":{"taxon":{"scientificName":"Corvus
        corone","scientificNameAuthorship":"Linnaeus, 1758"}},"quality":{"documentGatheringUnitQualityIssues":false},"taxonVerbatim":"varis","unitId":"http://tun.fi/JX.298355#5"},"gathering":{"conversions":{"day":10,"month":8,"wgs84CenterPoint":{"lat":60.241857,"lon":25.089933}},"eventDate":{"begin":"2023-08-10","end":"2023-08-10"},"hourBegin":9,"hourEnd":9,"interpretations":{"coordinateAccuracy":1},"minutesBegin":47,"minutesEnd":48},"document":{"sourceId":"http://tun.fi/KE.1141"}},{"unit":{"interpretations":{"individualCount":1,"needsCheck":false,"needsIdentification":false,"recordQuality":"NEUTRAL","reliability":"UNDEFINED"},"linkings":{"taxon":{"scientificName":"Lupinus
        polyphyllus","scientificNameAuthorship":"Lindl."}},"quality":{"documentGatheringUnitQualityIssues":false},"taxonVerbatim":"komealupiini","unitId":"http://tun.fi/HR.4114/2314_U"},"gathering":{"conversions":{"day":8,"month":8,"wgs84CenterPoint":{"lat":61.466593,"lon":23.727776}},"eventDate":{"begin":"2023-08-08","end":"2023-08-08"},"interpretations":{"coordinateAccuracy":10}},"document":{"sourceId":"http://tun.fi/KE.1462"}},{"unit":{"interpretations":{"individualCount":1,"needsCheck":false,"needsIdentification":false,"recordQuality":"NEUTRAL","reliability":"UNDEFINED"},"linkings":{"taxon":{"scientificName":"Heracleum
        persicum -ryhmä"}},"quality":{"documentGatheringUnitQualityIssues":false},"taxonVerbatim":"jättiputket","unitId":"http://tun.fi/HR.4114/2313_U"},"gathering":{"conversions":{"day":7,"month":8,"wgs84CenterPoint":{"lat":61.459898,"lon":23.789656}},"eventDate":{"begin":"2023-08-07","end":"2023-08-07"},"interpretations":{"coordinateAccuracy":10}},"document":{"sourceId":"http://tun.fi/KE.1462"}},{"unit":{"interpretations":{"individualCount":1,"needsCheck":false,"needsIdentification":false,"recordQuality":"NEUTRAL","reliability":"UNDEFINED"},"linkings":{"taxon":{"scientificName":"Lupinus
        polyphyllus","scientificNameAuthorship":"Lindl."}},"quality":{"documentGatheringUnitQualityIssues":false},"taxonVerbatim":"komealupiini","unitId":"http://tun.fi/HR.4114/2310_U"},"gathering":{"conversions":{"day":7,"month":8,"wgs84CenterPoint":{"lat":61.509203,"lon":23.66817}},"eventDate":{"begin":"2023-08-07","end":"2023-08-07"},"interpretations":{"coordinateAccuracy":10}},"document":{"sourceId":"http://tun.fi/KE.1462"}},{"unit":{"interpretations":{"individualCount":1,"needsCheck":false,"needsIdentification":false,"recordQuality":"NEUTRAL","reliability":"UNDEFINED"},"linkings":{"taxon":{"scientificName":"Lupinus
        polyphyllus","scientificNameAuthorship":"Lindl."}},"quality":{"documentGatheringUnitQualityIssues":false},"taxonVerbatim":"komealupiini","unitId":"http://tun.fi/HR.4114/2312_U"},"gathering":{"conversions":{"day":7,"month":8,"wgs84CenterPoint":{"lat":61.516972,"lon":23.651159}},"eventDate":{"begin":"2023-08-07","end":"2023-08-07"},"interpretations":{"coordinateAccuracy":10}},"document":{"sourceId":"http://tun.fi/KE.1462"}},{"unit":{"interpretations":{"individualCount":1,"needsCheck":false,"needsIdentification":false,"recordQuality":"NEUTRAL","reliability":"UNDEFINED"},"linkings":{"taxon":{"scientificName":"Rosa
        rugosa","scientificNameAuthorship":"Thunb."}},"quality":{"documentGatheringUnitQualityIssues":false},"taxonVerbatim":"kurtturuusu","unitId":"http://tun.fi/HR.4114/2307_U"},"gathering":{"conversions":{"day":7,"month":8,"wgs84CenterPoint":{"lat":61.509753,"lon":23.667866}},"eventDate":{"begin":"2023-08-07","end":"2023-08-07"},"interpretations":{"coordinateAccuracy":10}},"document":{"sourceId":"http://tun.fi/KE.1462"}},{"unit":{"interpretations":{"individualCount":1,"needsCheck":false,"needsIdentification":false,"recordQuality":"NEUTRAL","reliability":"UNDEFINED"},"linkings":{"taxon":{"scientificName":"Rosa
        rugosa","scientificNameAuthorship":"Thunb."}},"quality":{"documentGatheringUnitQualityIssues":false},"taxonVerbatim":"kurtturuusu","unitId":"http://tun.fi/HR.4114/2308_U"},"gathering":{"conversions":{"day":7,"month":8,"wgs84CenterPoint":{"lat":61.509833,"lon":23.667463}},"eventDate":{"begin":"2023-08-07","end":"2023-08-07"},"interpretations":{"coordinateAccuracy":10}},"document":{"sourceId":"http://tun.fi/KE.1462"}},{"unit":{"interpretations":{"individualCount":1,"needsCheck":false,"needsIdentification":false,"recordQuality":"NEUTRAL","reliability":"UNDEFINED"},"linkings":{"taxon":{"scientificName":"Rosa
        rugosa","scientificNameAuthorship":"Thunb."}},"quality":{"documentGatheringUnitQualityIssues":false},"taxonVerbatim":"kurtturuusu","unitId":"http://tun.fi/HR.4114/2309_U"},"gathering":{"conversions":{"day":7,"month":8,"wgs84CenterPoint":{"lat":61.509814,"lon":23.667766}},"eventDate":{"begin":"2023-08-07","end":"2023-08-07"},"interpretations":{"coordinateAccuracy":10}},"document":{"sourceId":"http://tun.fi/KE.1462"}}]}'
  recorded_at: 2023-08-28 11:01:37 GMT
  recorded_with: vcr/1.2.2, webmockr/0.9.0
- request:
    method: get
    uri: https://apitest.laji.fi/v0/warehouse/query/unit/list?selected=unit.unitId%2Cgathering.conversions.wgs84CenterPoint.lat%2Cgathering.conversions.wgs84CenterPoint.lon%2Cunit.quality.documentGatheringUnitQualityIssues%2Cunit.interpretations.needsCheck%2Cunit.interpretations.needsIdentification%2Cunit.interpretations.reliability%2Cunit.interpretations.recordQuality%2Cgathering.eventDate.begin%2Cgathering.eventDate.end%2Cgathering.hourBegin%2Cgathering.hourEnd%2Cgathering.minutesBegin%2Cgathering.minutesEnd%2Cgathering.conversions.day%2Cgathering.conversions.month%2Cunit.interpretations.individualCount%2Cunit.abundanceString%2Cgathering.interpretations.coordinateAccuracy%2Cunit.linkings.taxon.scientificName%2Cunit.taxonVerbatim%2Cunit.linkings.taxon.scientificNameAuthorship%2Cunit.author%2Cdocument.sourceId&page=1&pageSize=10&access_token=<finbif_token>
    body:
      encoding: ''
      string: ''
    headers:
      Content-Type: ''
      Accept: application/json
  response:
    status:
      status_code: 200
      category: Success
      reason: OK
      message: 'Success: (200) OK'
    headers:
      date: Mon, 28 Aug 2023 11:01:37 GMT
      content-type: application/json;charset=utf-8
      transfer-encoding: chunked
      access-control-allow-origin: '*'
      via: 1.0 staging.laji.fi
      cache-control: no-store
      x-frame-options: DENY
      x-xss-protection: 1;mode=block
      x-content-type-options: nosniff
      strict-transport-security: max-age=31536000;includeSubDomains;preload
      referrer-policy: no-referrer-when-downgrade
    body:
      encoding: ''
      file: no
      string: '{"currentPage":1,"nextPage":2,"lastPage":262126,"pageSize":10,"total":2621259,"cacheTimestamp":1693220355,"results":[{"unit":{"interpretations":{"individualCount":1,"needsCheck":false,"needsIdentification":false,"recordQuality":"NEUTRAL","reliability":"UNDEFINED"},"linkings":{"taxon":{"scientificName":"Parus
        major","scientificNameAuthorship":"Linnaeus, 1758"}},"quality":{"documentGatheringUnitQualityIssues":false},"taxonVerbatim":"talitiainen","unitId":"http://tun.fi/KE.176/64e725902d0ec27bece0497f#Unit1"},"gathering":{"conversions":{"day":24,"month":8,"wgs84CenterPoint":{"lat":61.179,"lon":23.875}},"eventDate":{"begin":"2023-08-24","end":"2023-08-24"},"interpretations":{"coordinateAccuracy":1}},"document":{"sourceId":"http://tun.fi/KE.176"}},{"unit":{"abundanceString":"1","interpretations":{"individualCount":1,"needsCheck":false,"needsIdentification":false,"recordQuality":"NEUTRAL","reliability":"UNDEFINED"},"linkings":{"taxon":{"scientificName":"Pica
        pica","scientificNameAuthorship":"(Linnaeus, 1758)"}},"quality":{"documentGatheringUnitQualityIssues":false},"taxonVerbatim":"harakka","unitId":"http://tun.fi/JX.298355#3"},"gathering":{"conversions":{"day":10,"month":8,"wgs84CenterPoint":{"lat":60.241027,"lon":25.09147}},"eventDate":{"begin":"2023-08-10","end":"2023-08-10"},"hourBegin":9,"hourEnd":9,"interpretations":{"coordinateAccuracy":10},"minutesBegin":47,"minutesEnd":48},"document":{"sourceId":"http://tun.fi/KE.1141"}},{"unit":{"interpretations":{"individualCount":1,"needsCheck":false,"needsIdentification":false,"recordQuality":"NEUTRAL","reliability":"UNDEFINED"},"linkings":{"taxon":{"scientificName":"Corvus
        corone","scientificNameAuthorship":"Linnaeus, 1758"}},"quality":{"documentGatheringUnitQualityIssues":false},"taxonVerbatim":"varis","unitId":"http://tun.fi/JX.298355#5"},"gathering":{"conversions":{"day":10,"month":8,"wgs84CenterPoint":{"lat":60.241857,"lon":25.089933}},"eventDate":{"begin":"2023-08-10","end":"2023-08-10"},"hourBegin":9,"hourEnd":9,"interpretations":{"coordinateAccuracy":1},"minutesBegin":47,"minutesEnd":48},"document":{"sourceId":"http://tun.fi/KE.1141"}},{"unit":{"interpretations":{"individualCount":1,"needsCheck":false,"needsIdentification":false,"recordQuality":"NEUTRAL","reliability":"UNDEFINED"},"linkings":{"taxon":{"scientificName":"Lupinus
        polyphyllus","scientificNameAuthorship":"Lindl."}},"quality":{"documentGatheringUnitQualityIssues":false},"taxonVerbatim":"komealupiini","unitId":"http://tun.fi/HR.4114/2314_U"},"gathering":{"conversions":{"day":8,"month":8,"wgs84CenterPoint":{"lat":61.466593,"lon":23.727776}},"eventDate":{"begin":"2023-08-08","end":"2023-08-08"},"interpretations":{"coordinateAccuracy":10}},"document":{"sourceId":"http://tun.fi/KE.1462"}},{"unit":{"interpretations":{"individualCount":1,"needsCheck":false,"needsIdentification":false,"recordQuality":"NEUTRAL","reliability":"UNDEFINED"},"linkings":{"taxon":{"scientificName":"Heracleum
        persicum -ryhmä"}},"quality":{"documentGatheringUnitQualityIssues":false},"taxonVerbatim":"jättiputket","unitId":"http://tun.fi/HR.4114/2313_U"},"gathering":{"conversions":{"day":7,"month":8,"wgs84CenterPoint":{"lat":61.459898,"lon":23.789656}},"eventDate":{"begin":"2023-08-07","end":"2023-08-07"},"interpretations":{"coordinateAccuracy":10}},"document":{"sourceId":"http://tun.fi/KE.1462"}},{"unit":{"interpretations":{"individualCount":1,"needsCheck":false,"needsIdentification":false,"recordQuality":"NEUTRAL","reliability":"UNDEFINED"},"linkings":{"taxon":{"scientificName":"Lupinus
        polyphyllus","scientificNameAuthorship":"Lindl."}},"quality":{"documentGatheringUnitQualityIssues":false},"taxonVerbatim":"komealupiini","unitId":"http://tun.fi/HR.4114/2310_U"},"gathering":{"conversions":{"day":7,"month":8,"wgs84CenterPoint":{"lat":61.509203,"lon":23.66817}},"eventDate":{"begin":"2023-08-07","end":"2023-08-07"},"interpretations":{"coordinateAccuracy":10}},"document":{"sourceId":"http://tun.fi/KE.1462"}},{"unit":{"interpretations":{"individualCount":1,"needsCheck":false,"needsIdentification":false,"recordQuality":"NEUTRAL","reliability":"UNDEFINED"},"linkings":{"taxon":{"scientificName":"Lupinus
        polyphyllus","scientificNameAuthorship":"Lindl."}},"quality":{"documentGatheringUnitQualityIssues":false},"taxonVerbatim":"komealupiini","unitId":"http://tun.fi/HR.4114/2312_U"},"gathering":{"conversions":{"day":7,"month":8,"wgs84CenterPoint":{"lat":61.516972,"lon":23.651159}},"eventDate":{"begin":"2023-08-07","end":"2023-08-07"},"interpretations":{"coordinateAccuracy":10}},"document":{"sourceId":"http://tun.fi/KE.1462"}},{"unit":{"interpretations":{"individualCount":1,"needsCheck":false,"needsIdentification":false,"recordQuality":"NEUTRAL","reliability":"UNDEFINED"},"linkings":{"taxon":{"scientificName":"Rosa
        rugosa","scientificNameAuthorship":"Thunb."}},"quality":{"documentGatheringUnitQualityIssues":false},"taxonVerbatim":"kurtturuusu","unitId":"http://tun.fi/HR.4114/2307_U"},"gathering":{"conversions":{"day":7,"month":8,"wgs84CenterPoint":{"lat":61.509753,"lon":23.667866}},"eventDate":{"begin":"2023-08-07","end":"2023-08-07"},"interpretations":{"coordinateAccuracy":10}},"document":{"sourceId":"http://tun.fi/KE.1462"}},{"unit":{"interpretations":{"individualCount":1,"needsCheck":false,"needsIdentification":false,"recordQuality":"NEUTRAL","reliability":"UNDEFINED"},"linkings":{"taxon":{"scientificName":"Rosa
        rugosa","scientificNameAuthorship":"Thunb."}},"quality":{"documentGatheringUnitQualityIssues":false},"taxonVerbatim":"kurtturuusu","unitId":"http://tun.fi/HR.4114/2308_U"},"gathering":{"conversions":{"day":7,"month":8,"wgs84CenterPoint":{"lat":61.509833,"lon":23.667463}},"eventDate":{"begin":"2023-08-07","end":"2023-08-07"},"interpretations":{"coordinateAccuracy":10}},"document":{"sourceId":"http://tun.fi/KE.1462"}},{"unit":{"interpretations":{"individualCount":1,"needsCheck":false,"needsIdentification":false,"recordQuality":"NEUTRAL","reliability":"UNDEFINED"},"linkings":{"taxon":{"scientificName":"Rosa
        rugosa","scientificNameAuthorship":"Thunb."}},"quality":{"documentGatheringUnitQualityIssues":false},"taxonVerbatim":"kurtturuusu","unitId":"http://tun.fi/HR.4114/2309_U"},"gathering":{"conversions":{"day":7,"month":8,"wgs84CenterPoint":{"lat":61.509814,"lon":23.667766}},"eventDate":{"begin":"2023-08-07","end":"2023-08-07"},"interpretations":{"coordinateAccuracy":10}},"document":{"sourceId":"http://tun.fi/KE.1462"}}]}'
  recorded_at: 2023-08-28 11:01:37 GMT
  recorded_with: vcr/1.2.2, webmockr/0.9.0
