http_interactions:
- request:
    method: get
    uri: https://apitest.laji.fi/v0/warehouse/query/unit/list?selected=unit.unitId%2Cunit.linkings.taxon.informalTaxonGroups&page=1&pageSize=10&access_token=<finbif_token>
    body:
      encoding: ''
      string: ''
    headers:
      Content-Type: ''
      Accept: application/json
  response:
    status:
      status_code: 200
      category: Success
      reason: OK
      message: 'Success: (200) OK'
    headers:
      date: Mon, 28 Aug 2023 11:01:32 GMT
      content-type: application/json;charset=utf-8
      transfer-encoding: chunked
      access-control-allow-origin: '*'
      via: 1.0 staging.laji.fi
      cache-control: no-store
      x-frame-options: DENY
      x-xss-protection: 1;mode=block
      x-content-type-options: nosniff
      strict-transport-security: max-age=31536000;includeSubDomains;preload
      referrer-policy: no-referrer-when-downgrade
    body:
      encoding: ''
      file: no
      string: '{"currentPage":1,"nextPage":2,"lastPage":262126,"pageSize":10,"total":2621259,"cacheTimestamp":1693220492,"results":[{"unit":{"linkings":{"taxon":{"informalTaxonGroups":["http://tun.fi/MVL.1"]}},"unitId":"http://tun.fi/KE.176/64e725902d0ec27bece0497f#Unit1"}},{"unit":{"linkings":{"taxon":{"informalTaxonGroups":["http://tun.fi/MVL.1"]}},"unitId":"http://tun.fi/JX.298355#3"}},{"unit":{"linkings":{"taxon":{"informalTaxonGroups":["http://tun.fi/MVL.1"]}},"unitId":"http://tun.fi/JX.298355#5"}},{"unit":{"linkings":{"taxon":{"informalTaxonGroups":["http://tun.fi/MVL.343"]}},"unitId":"http://tun.fi/HR.4114/2314_U"}},{"unit":{"linkings":{"taxon":{"informalTaxonGroups":["http://tun.fi/MVL.343"]}},"unitId":"http://tun.fi/HR.4114/2313_U"}},{"unit":{"linkings":{"taxon":{"informalTaxonGroups":["http://tun.fi/MVL.343"]}},"unitId":"http://tun.fi/HR.4114/2310_U"}},{"unit":{"linkings":{"taxon":{"informalTaxonGroups":["http://tun.fi/MVL.343"]}},"unitId":"http://tun.fi/HR.4114/2312_U"}},{"unit":{"linkings":{"taxon":{"informalTaxonGroups":["http://tun.fi/MVL.343"]}},"unitId":"http://tun.fi/HR.4114/2307_U"}},{"unit":{"linkings":{"taxon":{"informalTaxonGroups":["http://tun.fi/MVL.343"]}},"unitId":"http://tun.fi/HR.4114/2308_U"}},{"unit":{"linkings":{"taxon":{"informalTaxonGroups":["http://tun.fi/MVL.343"]}},"unitId":"http://tun.fi/HR.4114/2309_U"}}]}'
  recorded_at: 2023-08-28 11:01:32 GMT
  recorded_with: vcr/1.2.2, webmockr/0.9.0
- request:
    method: get
    uri: https://apitest.laji.fi/v0/informal-taxon-groups?lang=multi&pageSize=1000&access_token=<finbif_token>
    body:
      encoding: ''
      string: ''
    headers:
      Content-Type: ''
      Accept: application/json
  response:
    status:
      status_code: 200
      category: Success
      reason: OK
      message: 'Success: (200) OK'
    headers:
      date: Mon, 28 Aug 2023 11:01:32 GMT
      content-type: application/json; charset=utf-8
      content-length: '15721'
      x-powered-by: Express
      access-control-allow-origin: '*'
      etag: W/"3d69-oN3c8QkR0TQJhdE27b2GuNtmcM4"
      cache-control: public
      x-frame-options: DENY
      x-xss-protection: 1;mode=block
      x-content-type-options: nosniff
      strict-transport-security: max-age=31536000;includeSubDomains;preload
      referrer-policy: no-referrer-when-downgrade
    body:
      encoding: ''
      file: no
      string: '{"currentPage":1,"pageSize":1000,"total":148,"results":[{"id":"MVL.1","hasSubGroup":["MVL.1241","MVL.1141"],"name":{"en":"Birds","fi":"Linnut","sv":"Fåglar"}},{"id":"MVL.2","hasSubGroup":["MVL.1181","MVL.187"],"name":{"en":"Mammals","fi":"Nisäkkäät","sv":"Däggdjur"}},{"id":"MVL.22","hasSubGroup":["MVL.82"],"name":{"en":"Algae","fi":"Levät","sv":"Alger"}},{"id":"MVL.23","hasSubGroup":["MVL.562","MVL.563","MVL.561"],"name":{"en":"Bryophytes","fi":"Sammalet","sv":"Mossor"}},{"id":"MVL.24","hasSubGroup":["MVL.63","MVL.62","MVL.61","MVL.81","MVL.121"],"name":{"en":"Macrofungi","fi":"Suursienet","sv":"Storsvampar"}},{"id":"MVL.25","hasSubGroup":["MVL.382","MVL.381"],"name":{"en":"Lichenized
        and lichenicolous fungi","fi":"Jäkälät ja likenikoliset sienet","sv":"Lavar
        och lavparasiter"}},{"id":"MVL.26","hasSubGroup":["MVL.162","MVL.161"],"name":{"en":"Reptiles
        and amphibians","fi":"Matelijat ja sammakkoeläimet","sv":"Kräld- och groddjur"}},{"id":"MVL.27","name":{"en":"Fishes","fi":"Kalat","sv":"Fiskar"}},{"id":"MVL.28","hasSubGroup":["MVL.241","MVL.601","MVL.962","MVL.402","MVL.401"],"name":{"en":"Worms","fi":"Madot","sv":"Maskar"}},{"id":"MVL.30","name":{"en":"Sawflies,
        wasps, ants and bees","fi":"Pistiäiset","sv":"Steklar"}},{"id":"MVL.31","hasSubGroup":["MVL.183","MVL.238","MVL.182","MVL.181","MVL.237","MVL.184"],"name":{"en":"Moths
        and butterflies","fi":"Perhoset","sv":"Fjärilar"}},{"id":"MVL.33","name":{"en":"Beetles","fi":"Kovakuoriaiset","sv":"Skalbaggar"}},{"id":"MVL.34","hasSubGroup":["MVL.701","MVL.703","MVL.704","MVL.706","MVL.705","MVL.702"],"name":{"en":"True
        bugs","fi":"Nivelkärsäiset","sv":"Halvvingar"}},{"id":"MVL.36","name":{"en":"Dragonflies","fi":"Sudenkorennot","sv":"Sländor"}},{"id":"MVL.37","hasSubGroup":["MVL.243","MVL.246","MVL.244","MVL.245"],"name":{"en":"Myriapods","fi":"Tuhatjalkaiset","sv":"Mångfotingar"}},{"id":"MVL.38","name":{"en":"Spiders","fi":"Hämähäkit","sv":"Spindlar"}},{"id":"MVL.39","hasSubGroup":["MVL.213","MVL.461"],"name":{"en":"Crustaceans","fi":"Äyriäiset","sv":"Kräftdjur"}},{"id":"MVL.40","hasSubGroup":["MVL.240","MVL.463","MVL.239"],"name":{"en":"Molluscs","fi":"Nilviäiset","sv":"Blötdjur"}},{"id":"MVL.41","hasSubGroup":["MVL.521","MVL.442","MVL.321","MVL.441","MVL.301"],"name":{"en":"Other
        organisms","fi":"Muut organismit","sv":"Övriga organismer"}},{"id":"MVL.61","name":{"en":"Agaricoid
        fungi","fi":"Helttasienet","sv":"Agaricoid fungi"}},{"id":"MVL.62","name":{"en":"Boletoid
        fungi","fi":"Tatit","sv":"Boletoid fungi"}},{"id":"MVL.63","name":{"en":"Cyphelloid
        fungi","fi":"Kuppimaiset sienet","sv":"Cyphelloid fungi"}},{"id":"MVL.81","name":{"en":"Gastroid
        fungi, puffballs","fi":"Kupusienet","sv":"Gastroid fungi"}},{"id":"MVL.82","hasSubGroup":["MVL.542","MVL.541","MVL.544","MVL.543"],"name":{"en":"Macro
        algae","fi":"Makrolevät","sv":"Makroskopiska alger"}},{"id":"MVL.121","hasSubGroup":["MVL.641","MVL.126","MVL.125","MVL.123","MVL.127","MVL.124","MVL.122"],"name":{"en":"Aphyllophoroid
        fungi","fi":"Kääväkkäät","sv":"Aphyllophoroid fungi"}},{"id":"MVL.122","name":{"en":"Polypores","fi":"Käävät","sv":"Tickor"}},{"id":"MVL.123","name":{"en":"Jelly
        fungi, tremelloid fungi","fi":"Hyytelösienet","sv":"Gelésvamp"}},{"id":"MVL.124","name":{"en":"Corticioid
        fungi","fi":"Orvakat","sv":"Corticioid fungi"}},{"id":"MVL.125","name":{"en":"Clavarioid
        fungi","fi":"Nuijakkaat","sv":"Clavarioid fungi"}},{"id":"MVL.126","name":{"en":"Ramarioid
        fungi","fi":"Haarakkaat","sv":"Ramarioid fungi"}},{"id":"MVL.127","name":{"en":"Hydnoid
        fungi","fi":"Orakkaat","sv":"Hydnoid fungi"}},{"id":"MVL.161","name":{"en":"Amphibians","fi":"Sammakkoeläimet","sv":"Groddjur"}},{"id":"MVL.162","name":{"en":"Reptiles","fi":"Matelijat","sv":"Kräldjur"}},{"id":"MVL.181","name":{"en":"Butterflies","fi":"Päiväperhoset","sv":"Dagfjärilar"}},{"id":"MVL.182","name":{"en":"Sphinx
        moths","fi":"Kiitäjät","sv":"Svärmare"}},{"id":"MVL.183","name":{"en":"Owlet
        moths","fi":"Yökköset","sv":"Nattflyn"}},{"id":"MVL.184","name":{"en":"Geometer
        moths","fi":"Mittarit","sv":"Mätare"}},{"id":"MVL.187","name":{"en":"Bats","fi":"Lepakot","sv":"Fladdermöss"}},{"id":"MVL.210","name":{"en":"Copepods","fi":"Hankajalkaiset","sv":"Hoppkräftor"}},{"id":"MVL.211","name":{"en":"Branchiopoda","fi":"Vesikirput
        ja muut kidusjalkaiset","sv":"Bladfotingar"}},{"id":"MVL.212","name":{"en":"Seed
        shrimps","fi":"Raakkuäyriäiset","sv":"Musselkräftor"}},{"id":"MVL.213","hasSubGroup":["MVL.462","MVL.215","MVL.214","MVL.481"],"name":{"en":"Macrocrustaceans","fi":"Makroäyriäiset","sv":"Makroskopiska
        kräftdjur"}},{"id":"MVL.214","name":{"en":"Crabs, shrimps and crayfishes","fi":"Ravut,
        katkaravut ja taskuravut","sv":"Kräftor, räkor och krabbor"}},{"id":"MVL.215","name":{"en":"Amphipods,
        isopods, opossum shrimps","fi":"Katkat, vesisiirat ja massiäyriäiset","sv":"Märlkräftor,
        tånglöss och pungräkor"}},{"id":"MVL.222","hasSubGroup":["MVL.1003","MVL.1002","MVL.681"],"name":{"en":"Aquatic
        insects","fi":"Vesihyönteiset","sv":"Vatteninsekter"}},{"id":"MVL.223","name":{"en":"Katydids,
        crickets, grasshopper","fi":"Hepokatit, sirkat, heinäsirkat","sv":"Vårtbitare,
        syrsor, gräshoppor"}},{"id":"MVL.224","hasSubGroup":["MVL.342","MVL.341"],"name":{"en":"True
        flies","fi":"Kaksisiipiset","sv":"Tvåvingar"}},{"id":"MVL.225","name":{"en":"Earwigs","fi":"Pihtihäntäiset","sv":"Tvestjärtar"}},{"id":"MVL.226","name":{"en":"Net-winged
        insects, megalopterans, snakeflies, mecopterans","fi":"Verkkosiipiset, kaislakorennot,
        käärmekorennot ja kärsäkorennot","sv":"Nätvingar, vattennätvingar, halssländor,
        näbbsländor"}},{"id":"MVL.227","name":{"en":"Booklice","fi":"Jäytiäiset","sv":"Stövsländor"}},{"id":"MVL.228","name":{"en":"Thrips","fi":"Ripsiäiset","sv":"Tripsar"}},{"id":"MVL.229","name":{"en":"Twisted-wing
        parasites","fi":"Kierresiipiset","sv":"Vridvingar"}},{"id":"MVL.230","name":{"en":"Cockroaches","fi":"Torakat","sv":"Kackerlackor"}},{"id":"MVL.232","hasSubGroup":["MVL.38","MVL.1001","MVL.33","MVL.30","MVL.31","MVL.223","MVL.234","MVL.224","MVL.229","MVL.227","MVL.222","MVL.230","MVL.228","MVL.236","MVL.1004","MVL.36","MVL.225","MVL.661","MVL.226","MVL.34","MVL.235"],"name":{"en":"Insects
        and arachnids","fi":"Hyönteiset ja hämähäkkieläimet","sv":"Insekter och spindeldjur"}},{"id":"MVL.233","hasSubGroup":["MVL.564","MVL.361","MVL.25","MVL.24"],"name":{"en":"Fungi
        and lichens","fi":"Sienet ja jäkälät","sv":"Svampar och lavar"}},{"id":"MVL.234","name":{"en":"Mites
        and ticks","fi":"Punkit","sv":"Kvalster"}},{"id":"MVL.235","name":{"en":"Harvestmen","fi":"Lukit","sv":"Lockespindlar"}},{"id":"MVL.236","name":{"en":"Pseudoscorpions","fi":"Valeskorpionit","sv":"Klokrypare"}},{"id":"MVL.237","name":{"en":"Macrolepidoptera","fi":"Suurperhoset","sv":"Storfjärilar"}},{"id":"MVL.238","name":{"en":"Microlepidoptera","fi":"Pikkuperhoset","sv":"Mikrofjärilar"}},{"id":"MVL.239","name":{"en":"Bivalves","fi":"Simpukat","sv":"Musslor"}},{"id":"MVL.240","name":{"en":"Landsnails
        and slugs","fi":"Maakotilot ja etanat","sv":"Snäckor och sniglar"}},{"id":"MVL.241","hasSubGroup":["MVL.501","MVL.502","MVL.503"],"name":{"en":"Annelids","fi":"Nivelmadot","sv":"Ringmaskar"}},{"id":"MVL.243","name":{"en":"Chilopods,
        centipedes","fi":"Juoksujalkaiset","sv":"Enkelfotingar"}},{"id":"MVL.244","name":{"en":"Millipedes","fi":"Kaksoisjalkaiset","sv":"Dubbelfotingar"}},{"id":"MVL.245","name":{"en":"Pauropods","fi":"Harvajalkaiset","sv":"Fåfotingar"}},{"id":"MVL.246","name":{"en":"Symphylans","fi":"Sokkojuoksiaiset","sv":"Dvärgfotingar"}},{"id":"MVL.301","name":{"en":"Entognatha","fi":"Alkuhyönteiset","sv":"Urinsekter"}},{"id":"MVL.321","name":{"en":"Slime
        molds","fi":"Limasienet","sv":"Slemsvampar"}},{"id":"MVL.341","name":{"en":"Nematoceran
        flies","fi":"Sääsket","sv":"Myggor"}},{"id":"MVL.342","name":{"en":"Brachyceran
        flies","fi":"Kärpäset","sv":"Flugor"}},{"id":"MVL.343","hasSubGroup":["MVL.1062","MVL.1103","MVL.1221","MVL.1102"],"name":{"en":"Vascular
        plants","fi":"Putkilokasvit","sv":"Kärlväxter"}},{"id":"MVL.361","name":{"en":"Non-lichenized
        Ascomycota","fi":"Kotelosienet pl. jäkälät","sv":"Ascomycota utan lavar"}},{"id":"MVL.381","name":{"en":"Lichenized
        fungi","fi":"Jäkälät","sv":"Lavar"}},{"id":"MVL.382","name":{"en":"Lichenicolous
        fungi","fi":"Likenikoliset sienet","sv":"Lavparasiter"}},{"id":"MVL.401","name":{"en":"Priapulid
        worms","fi":"Makkaramadot","sv":"Snabelsäckmaskar"}},{"id":"MVL.402","name":{"en":"Ribbon
        worms","fi":"Limamadot","sv":"Slemmaskar"}},{"id":"MVL.441","name":{"en":"Bacteria","fi":"Bakteerit","sv":"Bakterier"}},{"id":"MVL.442","name":{"en":"Viruses
        and viroids","fi":"Virukset ja viroidit","sv":"Virus och viroids"}},{"id":"MVL.461","hasSubGroup":["MVL.211","MVL.212","MVL.210"],"name":{"en":"Microcrustaceans","fi":"Mikroäyriäiset","sv":"Mikroskopiska
        kräftdjur"}},{"id":"MVL.462","name":{"en":"Woodlice","fi":"Maasiirat","sv":"Gråsuggor"}},{"id":"MVL.463","name":{"en":"Aquatic
        snails","fi":"Vesikotilot","sv":"Vattensnäckor"}},{"id":"MVL.481","name":{"en":"Other
        macrocrustaceans","fi":"Muut makroäyriäiset","sv":"Övriga kräftdjur"}},{"id":"MVL.501","name":{"en":"Leeches","fi":"Juotikkaat","sv":"Iglar"}},{"id":"MVL.502","name":{"en":"Polychaetes","fi":"Monisukasmadot","sv":"Havborstmaskar"}},{"id":"MVL.503","name":{"en":"Earthworms,
        oligochaetes","fi":"Harvasukasmadot (lierot ym.)","sv":"Fåborstmaskar"}},{"id":"MVL.521","name":{"en":"Sponges,
        bryozoans and cnidarians","fi":"Sienieläimet, sammaleläimet ja polttiaiseläimet","sv":"Svampdjur,
        mossdjur och nässeldjur"}},{"id":"MVL.541","name":{"en":"Stoneworts","fi":"Näkinpartaislevät","sv":"Charophyta"}},{"id":"MVL.542","name":{"en":"Red
        algae","fi":"Punalevät","sv":"Rödalger"}},{"id":"MVL.543","name":{"en":"Green
        algae","fi":"Viherlevät","sv":"Grönalger"}},{"id":"MVL.544","name":{"en":"Brown
        algae and yellow green algae","fi":"Ruskolevät ja kellanvihreät levät","sv":"Brun
        alger och gulgrönalger"}},{"id":"MVL.561","name":{"en":"Mosses","fi":"Lehtisammalet","sv":"Bladmossor"}},{"id":"MVL.562","name":{"en":"Liverworts","fi":"Maksasammalet","sv":"Levermossor"}},{"id":"MVL.563","name":{"en":"Hornworts","fi":"Sarvisammalet","sv":"Nålfruktsmossor"}},{"id":"MVL.564","hasSubGroup":["MVL.581","MVL.582","MVL.583","MVL.565"],"name":{"en":"Parasitic
        microfungi","fi":"Parasiittiset piensienet","sv":"Parasitiska mikrosvampar"}},{"id":"MVL.565","name":{"en":"Smut
        fungi","fi":"Nokisienet","sv":"Sotsvampar"}},{"id":"MVL.581","name":{"en":"Exobasidium","fi":"Pöhösienet","sv":"Exobasidium"}},{"id":"MVL.582","name":{"en":"Erysiphales","fi":"Härmäsienet","sv":"Erysiphales"}},{"id":"MVL.583","name":{"en":"Rust
        fungi","fi":"Ruostesienet","sv":"Rostsvampar"}},{"id":"MVL.601","name":{"en":"Turbellarians","fi":"Värysmadot","sv":"Virvelmaskar"}},{"id":"MVL.621","name":{"en":"Monogeneans","fi":"Kidusmadot","sv":"Monogena
        sugmaskar"}},{"id":"MVL.641","name":{"en":"Cantharelloid fungi","fi":"Vahveromaiset
        sienet","sv":"Cantharelloid fungi"}},{"id":"MVL.661","name":{"en":"Fleas","fi":"Kirput","sv":"Loppor"}},{"id":"MVL.681","name":{"en":"Caddisflies","fi":"Vesiperhoset","sv":"Nattsländor"}},{"id":"MVL.701","name":{"en":"Heteropterans","fi":"Luteet","sv":"Skinbaggar"}},{"id":"MVL.702","name":{"en":"Auchenorrhynchans","fi":"Kaskaat","sv":"Stritar"}},{"id":"MVL.703","name":{"en":"Bladloppor","fi":"Kempit","sv":"Psylloideans"}},{"id":"MVL.704","name":{"en":"Aphids","fi":"Kirvat","sv":"Bladlöss"}},{"id":"MVL.705","name":{"en":"Whiteflies","fi":"Jauhiaiset","sv":"Mjöllös"}},{"id":"MVL.706","name":{"en":"Soft
        scales","fi":"Kilpikirvat","sv":"Skålsköldlöss"}},{"id":"MVL.961","name":{"en":"Tapeworms","fi":"Heisimadot","sv":"Bandmaskar"}},{"id":"MVL.962","hasSubGroup":["MVL.961","MVL.621"],"name":{"en":"Parasitic
        worms","fi":"Loismadot","sv":"Parasitiska maskar"}},{"id":"MVL.1001","name":{"en":"Lice","fi":"Täit
        ja väiveet","sv":"Djurlöss"}},{"id":"MVL.1002","name":{"en":"Stoneflies","fi":"Koskikorennot","sv":"Bäcksländor"}},{"id":"MVL.1003","name":{"en":"Mayflies","fi":"Päivänkorennot","sv":"Dagsländor"}},{"id":"MVL.1004","name":{"en":"Archaeognatha
        and Zygentoma","fi":"Siimahäntäiset ja toukkasukahäntäiset","sv":"Hoppborstsvansar
        och silverborstsvansar"}},{"id":"MVL.1062","name":{"en":"Berry plants","fi":"Marjakasvit","sv":"Bärväxter"}},{"id":"MVL.1081","name":{"en":"Evergreen
        trees","fi":"Ainavihannat puut","sv":"Vintergröna träd"}},{"id":"MVL.1082","name":{"en":"Deciduous
        trees","fi":"Kesävihannat puut","sv":"Lövträd"}},{"id":"MVL.1083","hasSubGroup":["MVL.1081","MVL.1082"],"name":{"en":"Trees","fi":"Puut","sv":"Träd"}},{"id":"MVL.1084","name":{"en":"Evergreen
        bushes","fi":"Ainavihannat pensaat","sv":"Vintergröna buskar"}},{"id":"MVL.1085","name":{"en":"Deciduous
        shrubs","fi":"Kesävihannat pensaat","sv":"Sommargröna buskar"}},{"id":"MVL.1086","hasSubGroup":["MVL.1085","MVL.1084"],"name":{"en":"Shrubs","fi":"Pensaat","sv":"Buskar"}},{"id":"MVL.1087","name":{"en":"Evergreen
        chamaephytes","fi":"Ainavihannat varvut","sv":"Vintergröna chamaefyter"}},{"id":"MVL.1088","name":{"en":"Deciduous
        chamaephytes","fi":"Kesävihannat varvut","sv":"Sommargröna chamaefyter"}},{"id":"MVL.1089","hasSubGroup":["MVL.1088","MVL.1087"],"name":{"en":"Chamaephytes","fi":"Varvut","sv":"Chamaefyter"}},{"id":"MVL.1090","name":{"en":"Evergreen
        climbers","fi":"Ainavihannat köynnökset","sv":"Vintergröna klätterväxter"}},{"id":"MVL.1091","name":{"en":"Deciduous
        climbers","fi":"Kesävihannat köynnökset","sv":"Sommargröna klätterväxter"}},{"id":"MVL.1092","hasSubGroup":["MVL.1090","MVL.1091"],"name":{"en":"Climbers","fi":"Köynnökset","sv":"Klätterväxter"}},{"id":"MVL.1093","name":{"en":"Hemicryptophytes","fi":"Puolipiilijät","sv":"Hemikryptofyter"}},{"id":"MVL.1094","name":{"en":"Geophytes","fi":"Piilotalvehtijat","sv":"Geofyter"}},{"id":"MVL.1095","name":{"en":"Helophytes","fi":"Ilmaversoiset
        vesikasvit","sv":"Helofyter"}},{"id":"MVL.1096","name":{"en":"Nympheids","fi":"Kelluslehtiset","sv":"Flytbladsväxter"}},{"id":"MVL.1097","name":{"en":"Elodeids","fi":"Uposlehtiset","sv":"Submers
        vattenväxter"}},{"id":"MVL.1098","name":{"en":"Isoetids","fi":"Pohjalehtiset","sv":"Rosettväxter"}},{"id":"MVL.1099","name":{"en":"Lemnids","fi":"Irtokellujat","sv":"Vattenyteväxter"}},{"id":"MVL.1100","hasSubGroup":["MVL.1097","MVL.1099","MVL.1098","MVL.1122","MVL.1096","MVL.1095"],"name":{"en":"Aquatic
        plants","fi":"Vesikasvit","sv":"Vattenväxter"}},{"id":"MVL.1101","name":{"en":"Therophytes","fi":"Kesäkasvit","sv":"Terofyter"}},{"id":"MVL.1102","hasSubGroup":["MVL.1086","MVL.1100","MVL.1083","MVL.1093","MVL.1094","MVL.1092","MVL.1121","MVL.1101","MVL.1089"],"name":{"en":"Plant
        life forms","fi":"Kasvien elomuodot","sv":"Växtformer"}},{"id":"MVL.1103","name":{"en":"Carnivorous
        plants","fi":"Lihansyöjäkasvit","sv":"Köttätande växter"}},{"id":"MVL.1121","name":{"en":"Shore
        plants","fi":"Rantakasvit","sv":"Strandväxter"}},{"id":"MVL.1122","name":{"en":"Submerged
        plants","fi":"Irtokeijujat","sv":"Flytväxter"}},{"id":"MVL.1141","hasSubGroup":["MVL.1162","MVL.1161"],"name":{"en":"Birds
        of prey and owls","fi":"Petolinnut ja pöllöt","sv":"Rovfåglar och ugglor"}},{"id":"MVL.1161","name":{"en":"Owls","fi":"Pöllöt","sv":"Ugglor"}},{"id":"MVL.1162","name":{"en":"Birds
        of prey","fi":"Petolinnut","sv":"Rovfåglar"}},{"id":"MVL.1181","name":{"en":"Small
        mammals","fi":"Piennisäkkäät","sv":"Små däggdjur"}},{"id":"MVL.1221","name":{"en":"Spring
        flowers","fi":"Kevätkukkijat","sv":"Vårväxter"}},{"id":"MVL.1241","name":{"en":"Waterbirds","fi":"Vesilinnut","sv":"Vattenfåglar"}}],"lastPage":1,"@context":"http://schema.laji.fi/context/informalTaxonGroup.jsonld"}'
  recorded_at: 2023-08-28 11:01:32 GMT
  recorded_with: vcr/1.2.2, webmockr/0.9.0
