http_interactions:
- request:
    method: get
    uri: https://api.laji.fi/v0/warehouse/query/gathering/aggregate?namedPlaceId=MNP.798&aggregateBy=gathering.gatheringId&page=1&pageSize=10&access_token=<finbif_token>
    body:
      encoding: ''
      string: ''
    headers:
      Content-Type: ''
      Accept: application/json
  response:
    status:
      status_code: 200
      category: Success
      reason: OK
      message: 'Success: (200) OK'
    headers:
      date: Tue, 16 Mar 2021 12:38:52 GMT
      content-type: application/json;charset=utf-8
      transfer-encoding: chunked
      access-control-allow-origin: '*'
      access-control-allow-credentials: 'true'
      x-frame-options: SAMEORIGIN
      x-download-options: noopen
      via: 1.1 dw.laji.fi
      vary: Accept-Encoding
      content-encoding: gzip
      cache-control: public
      x-xss-protection: 1;mode=block
      x-content-type-options: nosniff
      strict-transport-security: max-age=31536000;includeSubDomains;preload
      referrer-policy: no-referrer-when-downgrade
    body:
      encoding: UTF-8
      file: no
      string: '{"currentPage":1,"nextPage":2,"lastPage":12,"pageSize":10,"total":114,"results":[{"aggregateBy":{"gathering.gatheringId":"http://tun.fi/JX.1048021#2"},"count":1},{"aggregateBy":{"gathering.gatheringId":"http://tun.fi/JX.1055294#2"},"count":1},{"aggregateBy":{"gathering.gatheringId":"http://tun.fi/JX.1100710#2"},"count":1},{"aggregateBy":{"gathering.gatheringId":"http://tun.fi/JX.1175262#2"},"count":1},{"aggregateBy":{"gathering.gatheringId":"http://tun.fi/JX.1200466#2"},"count":1},{"aggregateBy":{"gathering.gatheringId":"http://tun.fi/JX.1215885#2"},"count":1},{"aggregateBy":{"gathering.gatheringId":"http://tun.fi/JX.127777#1"},"count":1},{"aggregateBy":{"gathering.gatheringId":"http://tun.fi/JX.127778#1"},"count":1},{"aggregateBy":{"gathering.gatheringId":"http://tun.fi/JX.127779#1"},"count":1},{"aggregateBy":{"gathering.gatheringId":"http://tun.fi/JX.127780#1"},"count":1}]}'
  recorded_at: 2021-03-16 12:38:53 GMT
  recorded_with: vcr/0.6.0, webmockr/0.7.4
