http_interactions:
- request:
    method: get
    uri: https://api.laji.fi/v0/warehouse/query/unit/list?primaryHabitat=MKV.habitatM%5BMKV.habitatSpecificTypeV%2CMKV.habitatSpecificTypeH%5D&selected=unit.unitId%2Cgathering.conversions.wgs84CenterPoint.lat%2Cgathering.conversions.wgs84CenterPoint.lon%2Cunit.quality.documentGatheringUnitQualityIssues%2Cunit.interpretations.needsCheck%2Cunit.interpretations.needsIdentification%2Cunit.interpretations.reliability%2Cunit.interpretations.recordQuality%2Cgathering.eventDate.begin%2Cgathering.eventDate.end%2Cgathering.hourBegin%2Cgathering.hourEnd%2Cgathering.minutesBegin%2Cgathering.minutesEnd%2Cgathering.conversions.day%2Cgathering.conversions.month%2Cunit.interpretations.individualCount%2Cunit.abundanceString%2Cgathering.interpretations.coordinateAccuracy%2Cunit.linkings.taxon.scientificName%2Cunit.taxonVerbatim%2Cunit.linkings.taxon.scientificNameAuthorship%2Cunit.author%2Cdocument.sourceId&page=1&pageSize=10&access_token=<finbif_token>
    body:
      encoding: ''
      string: ''
    headers:
      Content-Type: ''
      Accept: application/json
  response:
    status:
      status_code: 200
      category: Success
      reason: OK
      message: 'Success: (200) OK'
    headers:
      date: Thu, 30 Mar 2023 06:42:15 GMT
      content-type: application/json;charset=utf-8
      transfer-encoding: chunked
      access-control-allow-origin: '*'
      via: 1.0 dw.laji.fi
      cache-control: no-store
      x-xss-protection: 1;mode=block
      x-content-type-options: nosniff
      strict-transport-security: max-age=31536000;includeSubDomains;preload
      referrer-policy: no-referrer-when-downgrade
    body:
      encoding: ''
      file: no
      string: '{"currentPage":1,"nextPage":2,"lastPage":41,"pageSize":10,"total":401,"results":[{"unit":{"interpretations":{"individualCount":1,"needsCheck":false,"needsIdentification":false,"recordQuality":"NEUTRAL","reliability":"UNDEFINED"},"linkings":{"taxon":{"scientificName":"Hydnellum
        caeruleum","scientificNameAuthorship":"(Hornem.) P.Karst."}},"quality":{"documentGatheringUnitQualityIssues":false},"taxonVerbatim":"siniorakas","unitId":"http://tun.fi/JX.1445983#3"},"gathering":{"conversions":{"day":29,"month":9,"wgs84CenterPoint":{"lat":58.345536,"lon":22.310475}},"eventDate":{"begin":"2022-09-29","end":"2022-09-29"},"interpretations":{"coordinateAccuracy":1}},"document":{"sourceId":"http://tun.fi/KE.389"}},{"unit":{"interpretations":{"individualCount":1,"needsCheck":false,"needsIdentification":false,"recordQuality":"NEUTRAL","reliability":"UNDEFINED"},"linkings":{"taxon":{"scientificName":"Hydnellum
        caeruleum","scientificNameAuthorship":"(Hornem.) P.Karst."}},"quality":{"documentGatheringUnitQualityIssues":false},"taxonVerbatim":"Hydnellum
        caeruleum","unitId":"http://tun.fi/HR.3211/135643223-U"},"gathering":{"conversions":{"day":19,"month":9,"wgs84CenterPoint":{"lat":64.82345,"lon":25.19723}},"eventDate":{"begin":"2022-09-19","end":"2022-09-19"},"interpretations":{"coordinateAccuracy":32}},"document":{"sourceId":"http://tun.fi/KE.901"}},{"unit":{"interpretations":{"individualCount":1,"needsCheck":false,"needsIdentification":false,"recordQuality":"NEUTRAL","reliability":"UNDEFINED"},"linkings":{"taxon":{"scientificName":"Hydnellum
        caeruleum","scientificNameAuthorship":"(Hornem.) P.Karst."}},"quality":{"documentGatheringUnitQualityIssues":false},"taxonVerbatim":"siniorakas","unitId":"http://tun.fi/JX.1442889#3"},"gathering":{"conversions":{"day":17,"month":9,"wgs84CenterPoint":{"lat":68.904384,"lon":26.964409}},"eventDate":{"begin":"2022-09-17","end":"2022-09-17"},"interpretations":{"coordinateAccuracy":1}},"document":{"sourceId":"http://tun.fi/KE.389"}},{"unit":{"abundanceString":"4","interpretations":{"individualCount":4,"needsCheck":false,"needsIdentification":false,"recordQuality":"NEUTRAL","reliability":"UNDEFINED"},"linkings":{"taxon":{"scientificName":"Hydnellum
        caeruleum","scientificNameAuthorship":"(Hornem.) P.Karst."}},"quality":{"documentGatheringUnitQualityIssues":false},"taxonVerbatim":"siniorakas","unitId":"http://tun.fi/JX.1442753#6"},"gathering":{"conversions":{"day":16,"month":9,"wgs84CenterPoint":{"lat":65.156269,"lon":25.424308}},"eventDate":{"begin":"2022-09-16","end":"2022-09-16"},"interpretations":{"coordinateAccuracy":1}},"document":{"sourceId":"http://tun.fi/KE.389"}},{"unit":{"interpretations":{"individualCount":1,"needsCheck":false,"needsIdentification":false,"recordQuality":"NEUTRAL","reliability":"UNDEFINED"},"linkings":{"taxon":{"scientificName":"Hydnellum
        caeruleum","scientificNameAuthorship":"(Hornem.) P.Karst."}},"quality":{"documentGatheringUnitQualityIssues":false},"taxonVerbatim":"siniorakas","unitId":"http://tun.fi/JX.1442405#3"},"gathering":{"conversions":{"day":15,"month":9,"wgs84CenterPoint":{"lat":68.764298,"lon":27.287464}},"eventDate":{"begin":"2022-09-15","end":"2022-09-15"},"interpretations":{"coordinateAccuracy":1}},"document":{"sourceId":"http://tun.fi/KE.389"}},{"unit":{"abundanceString":"7","interpretations":{"individualCount":7,"needsCheck":false,"needsIdentification":false,"recordQuality":"NEUTRAL","reliability":"UNDEFINED"},"linkings":{"taxon":{"scientificName":"Hydnellum
        caeruleum","scientificNameAuthorship":"(Hornem.) P.Karst."}},"quality":{"documentGatheringUnitQualityIssues":false},"taxonVerbatim":"siniorakas","unitId":"http://tun.fi/JX.1442213#36"},"gathering":{"conversions":{"day":14,"month":9,"wgs84CenterPoint":{"lat":65.083724,"lon":25.542162}},"eventDate":{"begin":"2022-09-14","end":"2022-09-14"},"interpretations":{"coordinateAccuracy":1000}},"document":{"sourceId":"http://tun.fi/KE.389"}},{"unit":{"interpretations":{"individualCount":1,"needsCheck":false,"needsIdentification":false,"recordQuality":"NEUTRAL","reliability":"UNDEFINED"},"linkings":{"taxon":{"scientificName":"Hydnellum
        caeruleum","scientificNameAuthorship":"(Hornem.) P.Karst."}},"quality":{"documentGatheringUnitQualityIssues":false},"taxonVerbatim":"siniorakas","unitId":"http://tun.fi/JX.1441886#3"},"gathering":{"conversions":{"day":13,"month":9,"wgs84CenterPoint":{"lat":68.454727,"lon":28.415093}},"eventDate":{"begin":"2022-09-13","end":"2022-09-13"},"interpretations":{"coordinateAccuracy":1}},"document":{"sourceId":"http://tun.fi/KE.389"}},{"unit":{"abundanceString":"5","interpretations":{"individualCount":5,"needsCheck":false,"needsIdentification":false,"recordQuality":"NEUTRAL","reliability":"UNDEFINED"},"linkings":{"taxon":{"scientificName":"Hydnellum
        caeruleum","scientificNameAuthorship":"(Hornem.) P.Karst."}},"quality":{"documentGatheringUnitQualityIssues":false},"taxonVerbatim":"siniorakas","unitId":"http://tun.fi/JX.1440660#12"},"gathering":{"conversions":{"day":8,"month":9,"wgs84CenterPoint":{"lat":61.692724,"lon":23.093551}},"eventDate":{"begin":"2022-09-08","end":"2022-09-08"},"interpretations":{"coordinateAccuracy":1}},"document":{"sourceId":"http://tun.fi/KE.389"}},{"unit":{"interpretations":{"individualCount":1,"needsCheck":false,"needsIdentification":false,"recordQuality":"NEUTRAL","reliability":"UNDEFINED"},"linkings":{"taxon":{"scientificName":"Hydnellum
        caeruleum","scientificNameAuthorship":"(Hornem.) P.Karst."}},"quality":{"documentGatheringUnitQualityIssues":false},"taxonVerbatim":"Hydnellum
        caeruleum","unitId":"http://tun.fi/JX.1440274#30"},"gathering":{"conversions":{"day":7,"month":9,"wgs84CenterPoint":{"lat":61.194858,"lon":25.091658}},"eventDate":{"begin":"2022-09-07","end":"2022-09-07"},"interpretations":{"coordinateAccuracy":1000}},"document":{"sourceId":"http://tun.fi/KE.389"}},{"unit":{"abundanceString":"noin
        7","interpretations":{"individualCount":7,"needsCheck":false,"needsIdentification":false,"recordQuality":"NEUTRAL","reliability":"UNDEFINED"},"linkings":{"taxon":{"scientificName":"Hydnellum
        caeruleum","scientificNameAuthorship":"(Hornem.) P.Karst."}},"quality":{"documentGatheringUnitQualityIssues":false},"taxonVerbatim":"Hydnellum
        caeruleum","unitId":"http://tun.fi/JX.1439948#9"},"gathering":{"conversions":{"day":6,"month":9,"wgs84CenterPoint":{"lat":61.227466,"lon":25.141655}},"eventDate":{"begin":"2022-09-06","end":"2022-09-06"},"interpretations":{"coordinateAccuracy":1000}},"document":{"sourceId":"http://tun.fi/KE.389"}}]}'
  recorded_at: 2023-03-30 06:42:19 GMT
  recorded_with: vcr/1.2.0, webmockr/0.9.0
- request:
    method: get
    uri: https://api.laji.fi/v0/warehouse/query/unit/list?collectionId=HR.42&selected=unit.unitId%2Cgathering.conversions.wgs84CenterPoint.lat%2Cgathering.conversions.wgs84CenterPoint.lon%2Cunit.quality.documentGatheringUnitQualityIssues%2Cunit.interpretations.needsCheck%2Cunit.interpretations.needsIdentification%2Cunit.interpretations.reliability%2Cunit.interpretations.recordQuality%2Cgathering.eventDate.begin%2Cgathering.eventDate.end%2Cgathering.hourBegin%2Cgathering.hourEnd%2Cgathering.minutesBegin%2Cgathering.minutesEnd%2Cgathering.conversions.day%2Cgathering.conversions.month%2Cunit.interpretations.individualCount%2Cunit.abundanceString%2Cgathering.interpretations.coordinateAccuracy%2Cunit.linkings.taxon.scientificName%2Cunit.taxonVerbatim%2Cunit.linkings.taxon.scientificNameAuthorship%2Cunit.author%2Cdocument.sourceId&orderBy=gathering.eventDate.begin%20DESC&page=1&pageSize=10&access_token=<finbif_token>
    body:
      encoding: ''
      string: ''
    headers:
      Content-Type: ''
      Accept: application/json
  response:
    status:
      status_code: 200
      category: Success
      reason: OK
      message: 'Success: (200) OK'
    headers:
      date: Thu, 30 Mar 2023 06:42:17 GMT
      content-type: application/json;charset=utf-8
      transfer-encoding: chunked
      access-control-allow-origin: '*'
      via: 1.0 dw.laji.fi
      cache-control: no-store
      x-xss-protection: 1;mode=block
      x-content-type-options: nosniff
      strict-transport-security: max-age=31536000;includeSubDomains;preload
      referrer-policy: no-referrer-when-downgrade
    body:
      encoding: ''
      file: no
      string: '{"currentPage":1,"nextPage":2,"lastPage":113577,"pageSize":10,"total":1135767,"results":[{"unit":{"abundanceString":"1","author":"Zhantiev,
        1973","interpretations":{"individualCount":1,"needsCheck":false,"needsIdentification":false,"recordQuality":"NEUTRAL","reliability":"UNDEFINED"},"linkings":{"taxon":{"scientificName":"Attagenus
        smirnovi","scientificNameAuthorship":"Zhantiev, 1973"}},"quality":{"documentGatheringUnitQualityIssues":false},"taxonVerbatim":"Attagenus
        smirnovi","unitId":"http://id.luomus.fi/MY.13982435"},"gathering":{"conversions":{"day":15,"month":2,"wgs84CenterPoint":{"lat":60.2043,"lon":25.1468}},"eventDate":{"begin":"2023-02-15","end":"2023-02-15"},"interpretations":{"coordinateAccuracy":1000}},"document":{"sourceId":"http://tun.fi/KE.3"}},{"unit":{"abundanceString":"1","author":"(Milliron,
        1939)","interpretations":{"individualCount":1,"needsCheck":false,"needsIdentification":false,"recordQuality":"NEUTRAL","reliability":"UNDEFINED"},"linkings":{"taxon":{"scientificName":"Reesa
        vespulae","scientificNameAuthorship":"(Milliron, 1939)"}},"quality":{"documentGatheringUnitQualityIssues":false},"taxonVerbatim":"Reesa
        vespulae","unitId":"http://id.luomus.fi/MY.13982432"},"gathering":{"conversions":{"day":14,"month":2,"wgs84CenterPoint":{"lat":60.1717,"lon":24.9308}},"eventDate":{"begin":"2023-02-14","end":"2023-02-14"},"interpretations":{"coordinateAccuracy":1}},"document":{"sourceId":"http://tun.fi/KE.3"}},{"unit":{"abundanceString":"1","author":"(Ritter,
        1910)","interpretations":{"individualCount":1,"needsCheck":false,"needsIdentification":false,"recordQuality":"NEUTRAL","reliability":"UNDEFINED"},"linkings":{"taxon":{"scientificName":"Ctenolepisma
        calvum","scientificNameAuthorship":"(Ritter, 1910)"}},"quality":{"documentGatheringUnitQualityIssues":false},"taxonVerbatim":"Ctenolepisma
        calvum","unitId":"http://id.luomus.fi/MY.13996271"},"gathering":{"conversions":{"day":2,"month":2,"wgs84CenterPoint":{"lat":60.403,"lon":25.1}},"eventDate":{"begin":"2023-02-02","end":"2023-02-02"},"interpretations":{"coordinateAccuracy":1000}},"document":{"sourceId":"http://tun.fi/KE.3"}},{"unit":{"abundanceString":"1","author":"(Rohdendorf,
        1937)","interpretations":{"individualCount":1,"needsCheck":false,"needsIdentification":false,"recordQuality":"NEUTRAL","reliability":"UNDEFINED"},"linkings":{"taxon":{"scientificName":"Sarcophaga
        jacobsoni","scientificNameAuthorship":"(Rohdendorf, 1937)"}},"quality":{"documentGatheringUnitQualityIssues":false},"taxonVerbatim":"Sarcophaga
        jacobsoni","unitId":"http://id.luomus.fi/MY.13922041"},"gathering":{"conversions":{"wgs84CenterPoint":{"lat":59.932183,"lon":24.301556}},"eventDate":{"begin":"2023-01-01","end":"2023-12-31"},"interpretations":{"coordinateAccuracy":100000}},"document":{"sourceId":"http://tun.fi/KE.3"}},{"unit":{"abundanceString":"1","author":"(Linnaeus,
        1758)","interpretations":{"individualCount":1,"needsCheck":false,"needsIdentification":false,"recordQuality":"NEUTRAL","reliability":"UNDEFINED"},"linkings":{"taxon":{"scientificName":"Adalia
        decempunctata","scientificNameAuthorship":"(Linnaeus, 1758)"}},"quality":{"documentGatheringUnitQualityIssues":false},"taxonVerbatim":"Adalia
        decempunctata","unitId":"http://id.luomus.fi/MY.12435660"},"gathering":{"conversions":{"day":22,"month":10,"wgs84CenterPoint":{"lat":60.3245,"lon":25.0741}},"eventDate":{"begin":"2022-10-22","end":"2022-10-22"},"interpretations":{"coordinateAccuracy":20}},"document":{"sourceId":"http://tun.fi/KE.3"}},{"unit":{"abundanceString":"1","author":"(Linnaeus,
        1758)","interpretations":{"individualCount":1,"needsCheck":false,"needsIdentification":false,"recordQuality":"NEUTRAL","reliability":"UNDEFINED"},"linkings":{"taxon":{"scientificName":"Adalia
        decempunctata","scientificNameAuthorship":"(Linnaeus, 1758)"}},"quality":{"documentGatheringUnitQualityIssues":false},"taxonVerbatim":"Adalia
        decempunctata","unitId":"http://id.luomus.fi/MY.12435666"},"gathering":{"conversions":{"day":22,"month":10,"wgs84CenterPoint":{"lat":60.3245,"lon":25.0741}},"eventDate":{"begin":"2022-10-22","end":"2022-10-22"},"interpretations":{"coordinateAccuracy":20}},"document":{"sourceId":"http://tun.fi/KE.3"}},{"unit":{"abundanceString":"1","author":"(Linnaeus,
        1758)","interpretations":{"individualCount":1,"needsCheck":false,"needsIdentification":false,"recordQuality":"NEUTRAL","reliability":"UNDEFINED"},"linkings":{"taxon":{"scientificName":"Adalia
        decempunctata","scientificNameAuthorship":"(Linnaeus, 1758)"}},"quality":{"documentGatheringUnitQualityIssues":false},"taxonVerbatim":"Adalia
        decempunctata","unitId":"http://id.luomus.fi/MY.12435669"},"gathering":{"conversions":{"day":22,"month":10,"wgs84CenterPoint":{"lat":60.3245,"lon":25.0741}},"eventDate":{"begin":"2022-10-22","end":"2022-10-22"},"interpretations":{"coordinateAccuracy":20}},"document":{"sourceId":"http://tun.fi/KE.3"}},{"unit":{"abundanceString":"1","author":"(Linnaeus,
        1758)","interpretations":{"individualCount":1,"needsCheck":false,"needsIdentification":false,"recordQuality":"NEUTRAL","reliability":"UNDEFINED"},"linkings":{"taxon":{"scientificName":"Adalia
        decempunctata","scientificNameAuthorship":"(Linnaeus, 1758)"}},"quality":{"documentGatheringUnitQualityIssues":false},"taxonVerbatim":"Adalia
        decempunctata","unitId":"http://id.luomus.fi/MY.12435663"},"gathering":{"conversions":{"day":22,"month":10,"wgs84CenterPoint":{"lat":60.3245,"lon":25.0741}},"eventDate":{"begin":"2022-10-22","end":"2022-10-22"},"interpretations":{"coordinateAccuracy":20}},"document":{"sourceId":"http://tun.fi/KE.3"}},{"unit":{"abundanceString":"1","author":"(Linnaeus,
        1758)","interpretations":{"individualCount":1,"needsCheck":false,"needsIdentification":false,"recordQuality":"NEUTRAL","reliability":"UNDEFINED"},"linkings":{"taxon":{"scientificName":"Adalia
        decempunctata","scientificNameAuthorship":"(Linnaeus, 1758)"}},"quality":{"documentGatheringUnitQualityIssues":false},"taxonVerbatim":"Adalia
        decempunctata","unitId":"http://id.luomus.fi/MY.12435651"},"gathering":{"conversions":{"day":22,"month":10,"wgs84CenterPoint":{"lat":60.3245,"lon":25.0741}},"eventDate":{"begin":"2022-10-22","end":"2022-10-22"},"interpretations":{"coordinateAccuracy":20}},"document":{"sourceId":"http://tun.fi/KE.3"}},{"unit":{"abundanceString":"1","author":"(Linnaeus,
        1758)","interpretations":{"individualCount":1,"needsCheck":false,"needsIdentification":false,"recordQuality":"NEUTRAL","reliability":"UNDEFINED"},"linkings":{"taxon":{"scientificName":"Adalia
        decempunctata","scientificNameAuthorship":"(Linnaeus, 1758)"}},"quality":{"documentGatheringUnitQualityIssues":false},"taxonVerbatim":"Adalia
        decempunctata","unitId":"http://id.luomus.fi/MY.12435654"},"gathering":{"conversions":{"day":22,"month":10,"wgs84CenterPoint":{"lat":60.3245,"lon":25.0741}},"eventDate":{"begin":"2022-10-22","end":"2022-10-22"},"interpretations":{"coordinateAccuracy":20}},"document":{"sourceId":"http://tun.fi/KE.3"}}]}'
  recorded_at: 2023-03-30 06:42:19 GMT
  recorded_with: vcr/1.2.0, webmockr/0.9.0
- request:
    method: get
    uri: https://api.laji.fi/v0/warehouse/query/unit/list?collectionId=HR.101%2CHR.102%2CHR.103%2CHR.104%2CHR.1130%2CHR.1830%2CHR.3311%2CHR.5035&selected=unit.unitId%2Cgathering.conversions.wgs84CenterPoint.lat%2Cgathering.conversions.wgs84CenterPoint.lon%2Cunit.quality.documentGatheringUnitQualityIssues%2Cunit.interpretations.needsCheck%2Cunit.interpretations.needsIdentification%2Cunit.interpretations.reliability%2Cunit.interpretations.recordQuality%2Cgathering.eventDate.begin%2Cgathering.eventDate.end%2Cgathering.hourBegin%2Cgathering.hourEnd%2Cgathering.minutesBegin%2Cgathering.minutesEnd%2Cgathering.conversions.day%2Cgathering.conversions.month%2Cunit.interpretations.individualCount%2Cunit.abundanceString%2Cgathering.interpretations.coordinateAccuracy%2Cunit.linkings.taxon.scientificName%2Cunit.taxonVerbatim%2Cunit.linkings.taxon.scientificNameAuthorship%2Cunit.author%2Cdocument.sourceId&page=1&pageSize=10&access_token=<finbif_token>
    body:
      encoding: ''
      string: ''
    headers:
      Content-Type: ''
      Accept: application/json
  response:
    status:
      status_code: 200
      category: Success
      reason: OK
      message: 'Success: (200) OK'
    headers:
      date: Thu, 30 Mar 2023 06:42:18 GMT
      content-type: application/json;charset=utf-8
      transfer-encoding: chunked
      access-control-allow-origin: '*'
      via: 1.0 dw.laji.fi
      cache-control: no-store
      x-xss-protection: 1;mode=block
      x-content-type-options: nosniff
      strict-transport-security: max-age=31536000;includeSubDomains;preload
      referrer-policy: no-referrer-when-downgrade
    body:
      encoding: ''
      file: no
      string: '{"currentPage":1,"nextPage":2,"lastPage":28405,"pageSize":10,"total":284044,"results":[{"unit":{"abundanceString":"1","author":"Zhantiev,
        1973","interpretations":{"individualCount":1,"needsCheck":false,"needsIdentification":false,"recordQuality":"NEUTRAL","reliability":"UNDEFINED"},"linkings":{"taxon":{"scientificName":"Attagenus
        smirnovi","scientificNameAuthorship":"Zhantiev, 1973"}},"quality":{"documentGatheringUnitQualityIssues":false},"taxonVerbatim":"Attagenus
        smirnovi","unitId":"http://id.luomus.fi/MY.13982435"},"gathering":{"conversions":{"day":15,"month":2,"wgs84CenterPoint":{"lat":60.2043,"lon":25.1468}},"eventDate":{"begin":"2023-02-15","end":"2023-02-15"},"interpretations":{"coordinateAccuracy":1000}},"document":{"sourceId":"http://tun.fi/KE.3"}},{"unit":{"abundanceString":"1","author":"(Milliron,
        1939)","interpretations":{"individualCount":1,"needsCheck":false,"needsIdentification":false,"recordQuality":"NEUTRAL","reliability":"UNDEFINED"},"linkings":{"taxon":{"scientificName":"Reesa
        vespulae","scientificNameAuthorship":"(Milliron, 1939)"}},"quality":{"documentGatheringUnitQualityIssues":false},"taxonVerbatim":"Reesa
        vespulae","unitId":"http://id.luomus.fi/MY.13982432"},"gathering":{"conversions":{"day":14,"month":2,"wgs84CenterPoint":{"lat":60.1717,"lon":24.9308}},"eventDate":{"begin":"2023-02-14","end":"2023-02-14"},"interpretations":{"coordinateAccuracy":1}},"document":{"sourceId":"http://tun.fi/KE.3"}},{"unit":{"abundanceString":"1","author":"(Linnaeus,
        1758)","interpretations":{"individualCount":1,"needsCheck":false,"needsIdentification":false,"recordQuality":"NEUTRAL","reliability":"UNDEFINED"},"linkings":{"taxon":{"scientificName":"Adalia
        decempunctata","scientificNameAuthorship":"(Linnaeus, 1758)"}},"quality":{"documentGatheringUnitQualityIssues":false},"taxonVerbatim":"Adalia
        decempunctata","unitId":"http://id.luomus.fi/MY.12435688"},"gathering":{"conversions":{"day":22,"month":10,"wgs84CenterPoint":{"lat":60.3245,"lon":25.0741}},"eventDate":{"begin":"2022-10-22","end":"2022-10-22"},"interpretations":{"coordinateAccuracy":20}},"document":{"sourceId":"http://tun.fi/KE.3"}},{"unit":{"abundanceString":"1","author":"(Linnaeus,
        1758)","interpretations":{"individualCount":1,"needsCheck":false,"needsIdentification":false,"recordQuality":"NEUTRAL","reliability":"UNDEFINED"},"linkings":{"taxon":{"scientificName":"Adalia
        decempunctata","scientificNameAuthorship":"(Linnaeus, 1758)"}},"quality":{"documentGatheringUnitQualityIssues":false},"taxonVerbatim":"Adalia
        decempunctata","unitId":"http://id.luomus.fi/MY.12440820"},"gathering":{"conversions":{"day":22,"month":10,"wgs84CenterPoint":{"lat":60.3245,"lon":25.0741}},"eventDate":{"begin":"2022-10-22","end":"2022-10-22"},"interpretations":{"coordinateAccuracy":20}},"document":{"sourceId":"http://tun.fi/KE.3"}},{"unit":{"abundanceString":"1","author":"(Linnaeus,
        1758)","interpretations":{"individualCount":1,"needsCheck":false,"needsIdentification":false,"recordQuality":"NEUTRAL","reliability":"UNDEFINED"},"linkings":{"taxon":{"scientificName":"Adalia
        decempunctata","scientificNameAuthorship":"(Linnaeus, 1758)"}},"quality":{"documentGatheringUnitQualityIssues":false},"taxonVerbatim":"Adalia
        decempunctata","unitId":"http://id.luomus.fi/MY.12435676"},"gathering":{"conversions":{"day":22,"month":10,"wgs84CenterPoint":{"lat":60.3245,"lon":25.0741}},"eventDate":{"begin":"2022-10-22","end":"2022-10-22"},"interpretations":{"coordinateAccuracy":20}},"document":{"sourceId":"http://tun.fi/KE.3"}},{"unit":{"abundanceString":"1","author":"(Linnaeus,
        1758)","interpretations":{"individualCount":1,"needsCheck":false,"needsIdentification":false,"recordQuality":"NEUTRAL","reliability":"UNDEFINED"},"linkings":{"taxon":{"scientificName":"Adalia
        decempunctata","scientificNameAuthorship":"(Linnaeus, 1758)"}},"quality":{"documentGatheringUnitQualityIssues":false},"taxonVerbatim":"Adalia
        decempunctata","unitId":"http://id.luomus.fi/MY.12435685"},"gathering":{"conversions":{"day":22,"month":10,"wgs84CenterPoint":{"lat":60.3245,"lon":25.0741}},"eventDate":{"begin":"2022-10-22","end":"2022-10-22"},"interpretations":{"coordinateAccuracy":20}},"document":{"sourceId":"http://tun.fi/KE.3"}},{"unit":{"abundanceString":"1","author":"(Linnaeus,
        1758)","interpretations":{"individualCount":1,"needsCheck":false,"needsIdentification":false,"recordQuality":"NEUTRAL","reliability":"UNDEFINED"},"linkings":{"taxon":{"scientificName":"Adalia
        decempunctata","scientificNameAuthorship":"(Linnaeus, 1758)"}},"quality":{"documentGatheringUnitQualityIssues":false},"taxonVerbatim":"Adalia
        decempunctata","unitId":"http://id.luomus.fi/MY.12435682"},"gathering":{"conversions":{"day":22,"month":10,"wgs84CenterPoint":{"lat":60.3245,"lon":25.0741}},"eventDate":{"begin":"2022-10-22","end":"2022-10-22"},"interpretations":{"coordinateAccuracy":20}},"document":{"sourceId":"http://tun.fi/KE.3"}},{"unit":{"abundanceString":"1","author":"(Linnaeus,
        1758)","interpretations":{"individualCount":1,"needsCheck":false,"needsIdentification":false,"recordQuality":"NEUTRAL","reliability":"UNDEFINED"},"linkings":{"taxon":{"scientificName":"Adalia
        decempunctata","scientificNameAuthorship":"(Linnaeus, 1758)"}},"quality":{"documentGatheringUnitQualityIssues":false},"taxonVerbatim":"Adalia
        decempunctata","unitId":"http://id.luomus.fi/MY.12435660"},"gathering":{"conversions":{"day":22,"month":10,"wgs84CenterPoint":{"lat":60.3245,"lon":25.0741}},"eventDate":{"begin":"2022-10-22","end":"2022-10-22"},"interpretations":{"coordinateAccuracy":20}},"document":{"sourceId":"http://tun.fi/KE.3"}},{"unit":{"abundanceString":"1","author":"(Linnaeus,
        1758)","interpretations":{"individualCount":1,"needsCheck":false,"needsIdentification":false,"recordQuality":"NEUTRAL","reliability":"UNDEFINED"},"linkings":{"taxon":{"scientificName":"Adalia
        decempunctata","scientificNameAuthorship":"(Linnaeus, 1758)"}},"quality":{"documentGatheringUnitQualityIssues":false},"taxonVerbatim":"Adalia
        decempunctata","unitId":"http://id.luomus.fi/MY.12435666"},"gathering":{"conversions":{"day":22,"month":10,"wgs84CenterPoint":{"lat":60.3245,"lon":25.0741}},"eventDate":{"begin":"2022-10-22","end":"2022-10-22"},"interpretations":{"coordinateAccuracy":20}},"document":{"sourceId":"http://tun.fi/KE.3"}},{"unit":{"abundanceString":"1","author":"(Linnaeus,
        1758)","interpretations":{"individualCount":1,"needsCheck":false,"needsIdentification":false,"recordQuality":"NEUTRAL","reliability":"UNDEFINED"},"linkings":{"taxon":{"scientificName":"Adalia
        decempunctata","scientificNameAuthorship":"(Linnaeus, 1758)"}},"quality":{"documentGatheringUnitQualityIssues":false},"taxonVerbatim":"Adalia
        decempunctata","unitId":"http://id.luomus.fi/MY.12435669"},"gathering":{"conversions":{"day":22,"month":10,"wgs84CenterPoint":{"lat":60.3245,"lon":25.0741}},"eventDate":{"begin":"2022-10-22","end":"2022-10-22"},"interpretations":{"coordinateAccuracy":20}},"document":{"sourceId":"http://tun.fi/KE.3"}}]}'
  recorded_at: 2023-03-30 06:42:19 GMT
  recorded_with: vcr/1.2.0, webmockr/0.9.0
- request:
    method: get
    uri: https://api.laji.fi/v0/warehouse/query/unit/count?primaryHabitat=MKV.habitatM&ykj100km=67%3A32&access_token=<finbif_token>
    body:
      encoding: ''
      string: ''
    headers:
      Content-Type: ''
      Accept: application/json
  response:
    status:
      status_code: 200
      category: Success
      reason: OK
      message: 'Success: (200) OK'
    headers:
      date: Thu, 30 Mar 2023 06:42:19 GMT
      content-type: application/json;charset=utf-8
      transfer-encoding: chunked
      access-control-allow-origin: '*'
      via: 1.0 dw.laji.fi
      cache-control: no-store
      x-xss-protection: 1;mode=block
      x-content-type-options: nosniff
      strict-transport-security: max-age=31536000;includeSubDomains;preload
      referrer-policy: no-referrer-when-downgrade
    body:
      encoding: ''
      file: no
      string: '{"total":1375990}'
  recorded_at: 2023-03-30 06:42:19 GMT
  recorded_with: vcr/1.2.0, webmockr/0.9.0
- request:
    method: get
    uri: https://api.laji.fi/v0/warehouse/query/unit/aggregate?aggregateBy=unit.linkings.taxon.scientificName&page=1&pageSize=1&access_token=<finbif_token>
    body:
      encoding: ''
      string: ''
    headers:
      Content-Type: ''
      Accept: application/json
  response:
    status:
      status_code: 200
      category: Success
      reason: OK
      message: 'Success: (200) OK'
    headers:
      date: Thu, 30 Mar 2023 06:42:19 GMT
      content-type: application/json;charset=utf-8
      transfer-encoding: chunked
      access-control-allow-origin: '*'
      via: 1.0 dw.laji.fi
      cache-control: no-store
      x-xss-protection: 1;mode=block
      x-content-type-options: nosniff
      strict-transport-security: max-age=31536000;includeSubDomains;preload
      referrer-policy: no-referrer-when-downgrade
    body:
      encoding: ''
      file: no
      string: '{"currentPage":1,"nextPage":2,"lastPage":56253,"pageSize":1,"total":56253,"cacheTimestamp":1680158251,"results":[{"aggregateBy":{"unit.linkings.taxon.scientificName":"Parus
        major"},"count":1652835}]}'
  recorded_at: 2023-03-30 06:42:19 GMT
  recorded_with: vcr/1.2.0, webmockr/0.9.0
