http_interactions:
- request:
    method: get
    uri: https://apitest.laji.fi/v0/warehouse/query/unit/list?selected=unit.unitId%2Cdocument.collectionId&page=1&pageSize=10&access_token=<finbif_token>
    body:
      encoding: ''
      string: ''
    headers:
      Content-Type: ''
      Accept: application/json
  response:
    status:
      status_code: 200
      category: Success
      reason: OK
      message: 'Success: (200) OK'
    headers:
      date: Fri, 30 Jun 2023 07:04:47 GMT
      content-type: application/json;charset=utf-8
      transfer-encoding: chunked
      access-control-allow-origin: '*'
      via: 1.0 staging.laji.fi
      cache-control: no-store
      x-frame-options: DENY
      x-xss-protection: 1;mode=block
      x-content-type-options: nosniff
      strict-transport-security: max-age=31536000;includeSubDomains;preload
      referrer-policy: no-referrer-when-downgrade
    body:
      encoding: ''
      file: no
      string: '{"currentPage":1,"nextPage":2,"lastPage":261527,"pageSize":10,"total":2615270,"cacheTimestamp":1688108687,"results":[{"unit":{"unitId":"http://tun.fi/JX.298146#3"},"document":{"collectionId":"http://tun.fi/HR.1747"}},{"unit":{"unitId":"http://tun.fi/JX.298145#3"},"document":{"collectionId":"http://tun.fi/HR.1747"}},{"unit":{"unitId":"http://tun.fi/JX.298139#3"},"document":{"collectionId":"http://tun.fi/HR.2049"}},{"unit":{"unitId":"http://tun.fi/JX.298140#3"},"document":{"collectionId":"http://tun.fi/HR.2049"}},{"unit":{"unitId":"http://tun.fi/JX.298123#3"},"document":{"collectionId":"http://tun.fi/HR.1747"}},{"unit":{"unitId":"http://tun.fi/JX.298123#18"},"document":{"collectionId":"http://tun.fi/HR.1747"}},{"unit":{"unitId":"http://tun.fi/JX.298123#22"},"document":{"collectionId":"http://tun.fi/HR.1747"}},{"unit":{"unitId":"http://tun.fi/JX.298123#20"},"document":{"collectionId":"http://tun.fi/HR.1747"}},{"unit":{"unitId":"http://tun.fi/JX.298123#9"},"document":{"collectionId":"http://tun.fi/HR.1747"}},{"unit":{"unitId":"http://tun.fi/JX.298123#6"},"document":{"collectionId":"http://tun.fi/HR.1747"}}]}'
  recorded_at: 2023-06-30 07:04:47 GMT
  recorded_with: vcr/1.2.2, webmockr/0.9.0
