http_interactions:
- request:
    method: get
    uri: https://apitest.laji.fi/v0/warehouse/query/unit/list?selected=unit.unitId%2Cunit.linkings.taxon.latestRedListStatusFinland.status%2Cunit.linkings.taxon.latestRedListStatusFinland.year&page=1&pageSize=10&access_token=<finbif_token>
    body:
      encoding: ''
      string: ''
    headers:
      Content-Type: ''
      Accept: application/json
  response:
    status:
      status_code: 200
      category: Success
      reason: OK
      message: 'Success: (200) OK'
    headers:
      date: Mon, 28 Aug 2023 11:01:33 GMT
      content-type: application/json;charset=utf-8
      transfer-encoding: chunked
      access-control-allow-origin: '*'
      via: 1.0 staging.laji.fi
      cache-control: no-store
      x-frame-options: DENY
      x-xss-protection: 1;mode=block
      x-content-type-options: nosniff
      strict-transport-security: max-age=31536000;includeSubDomains;preload
      referrer-policy: no-referrer-when-downgrade
    body:
      encoding: ''
      file: no
      string: '{"currentPage":1,"nextPage":2,"lastPage":262126,"pageSize":10,"total":2621259,"cacheTimestamp":1693220493,"results":[{"unit":{"linkings":{"taxon":{"latestRedListStatusFinland":{"status":"http://tun.fi/MX.iucnLC","year":2019}}},"unitId":"http://tun.fi/KE.176/64e725902d0ec27bece0497f#Unit1"}},{"unit":{"linkings":{"taxon":{"latestRedListStatusFinland":{"status":"http://tun.fi/MX.iucnNT","year":2019}}},"unitId":"http://tun.fi/JX.298355#3"}},{"unit":{"linkings":{"taxon":{"latestRedListStatusFinland":{"status":"http://tun.fi/MX.iucnLC","year":2019}}},"unitId":"http://tun.fi/JX.298355#5"}},{"unit":{"linkings":{"taxon":{"latestRedListStatusFinland":{"status":"http://tun.fi/MX.iucnNA","year":2019}}},"unitId":"http://tun.fi/HR.4114/2314_U"}},{"unit":{"unitId":"http://tun.fi/HR.4114/2313_U"}},{"unit":{"linkings":{"taxon":{"latestRedListStatusFinland":{"status":"http://tun.fi/MX.iucnNA","year":2019}}},"unitId":"http://tun.fi/HR.4114/2310_U"}},{"unit":{"linkings":{"taxon":{"latestRedListStatusFinland":{"status":"http://tun.fi/MX.iucnNA","year":2019}}},"unitId":"http://tun.fi/HR.4114/2312_U"}},{"unit":{"linkings":{"taxon":{"latestRedListStatusFinland":{"status":"http://tun.fi/MX.iucnNA","year":2019}}},"unitId":"http://tun.fi/HR.4114/2307_U"}},{"unit":{"linkings":{"taxon":{"latestRedListStatusFinland":{"status":"http://tun.fi/MX.iucnNA","year":2019}}},"unitId":"http://tun.fi/HR.4114/2308_U"}},{"unit":{"linkings":{"taxon":{"latestRedListStatusFinland":{"status":"http://tun.fi/MX.iucnNA","year":2019}}},"unitId":"http://tun.fi/HR.4114/2309_U"}}]}'
  recorded_at: 2023-08-28 11:01:33 GMT
  recorded_with: vcr/1.2.2, webmockr/0.9.0
- request:
    method: get
    uri: https://apitest.laji.fi/v0/metadata/ranges/MX.iucnStatuses?lang=multi&access_token=<finbif_token>
    body:
      encoding: ''
      string: ''
    headers:
      Content-Type: ''
      Accept: application/json
  response:
    status:
      status_code: 200
      category: Success
      reason: OK
      message: 'Success: (200) OK'
    headers:
      date: Mon, 28 Aug 2023 11:01:33 GMT
      content-type: application/json; charset=utf-8
      content-length: '1329'
      x-powered-by: Express
      access-control-allow-origin: '*'
      etag: W/"531-fKhsKevokcRAqJcorJnlgXwZHBY"
      cache-control: public
      x-frame-options: DENY
      x-xss-protection: 1;mode=block
      x-content-type-options: nosniff
      strict-transport-security: max-age=31536000;includeSubDomains;preload
      referrer-policy: no-referrer-when-downgrade
    body:
      encoding: ''
      file: no
      string: '[{"id":"MX.iucnEX","value":{"en":"EX – Extinct","fi":"EX – Sukupuuttoon
        kuolleet","sv":"EX – Utdöd"}},{"id":"MX.iucnEW","value":{"en":"EW – Extinct
        in the Wild","fi":"EW – Luonnosta hävinneet","sv":"EW – Utdöd i vilt tillstånd"}},{"id":"MX.iucnRE","value":{"en":"RE
        – Regionally Extinct","fi":"RE – Suomesta hävinneet","sv":"RE – Nationellt
        utdöd"}},{"id":"MX.iucnCR","value":{"fi":"CR – Äärimmäisen uhanalaiset","en":"CR
        – Critically Endangered","sv":"CR – Akut hotad"}},{"id":"MX.iucnEN","value":{"en":"EN
        – Endangered","fi":"EN – Erittäin uhanalaiset","sv":"EN – Starkt hotad"}},{"id":"MX.iucnVU","value":{"fi":"VU
        – Vaarantuneet","sv":"VU – Sårbar","en":"VU – Vulnerable"}},{"id":"MX.iucnNT","value":{"sv":"NT
        – Nära hotad","fi":"NT – Silmälläpidettävät","en":"NT – Near Threatened"}},{"id":"MX.iucnLC","value":{"fi":"LC
        – Elinvoimaiset","sv":"LC – Livskraftig","en":"LC – Least Concern"}},{"id":"MX.iucnDD","value":{"en":"DD
        – Data Deficient","sv":"DD – Kunskapsbrist","fi":"DD – Puutteellisesti tunnetut"}},{"id":"MX.iucnNA","value":{"sv":"NA
        – Ej tillämplig","fi":"NA – Arviointiin soveltumattomat","en":"NA – Not Applicable"}},{"id":"MX.iucnNE","value":{"fi":"NE
        – Arvioimatta jätetyt","en":"NE – Not Evaluated","sv":"NE – Ej bedömd"}}]'
  recorded_at: 2023-08-28 11:01:33 GMT
  recorded_with: vcr/1.2.2, webmockr/0.9.0
