http_interactions:
- request:
    method: get
    uri: https://apitest.laji.fi/v0/warehouse/query/unit/list?collectionId=HR.48&selected=unit.unitId%2Cunit.facts.fact%2Cunit.facts.value%2Cgathering.facts.fact%2Cgathering.facts.value%2Cdocument.facts.fact%2Cdocument.facts.value&orderBy=RANDOM&page=1&pageSize=10&access_token=<finbif_token>
    body:
      encoding: ''
      string: ''
    headers:
      Content-Type: ''
      Accept: application/json
  response:
    status:
      status_code: 200
      category: Success
      reason: OK
      message: 'Success: (200) OK'
    headers:
      date: Thu, 28 Sep 2023 13:16:16 GMT
      content-type: application/json;charset=utf-8
      transfer-encoding: chunked
      access-control-allow-origin: '*'
      via: 1.0 staging.laji.fi
      cache-control: no-store
      x-frame-options: DENY
      x-xss-protection: 1;mode=block
      x-content-type-options: nosniff
      strict-transport-security: max-age=31536000;includeSubDomains;preload
      referrer-policy: no-referrer-when-downgrade
    body:
      encoding: ''
      file: no
      string: '{"currentPage":1,"nextPage":2,"lastPage":1180,"pageSize":10,"total":11793,"results":[{"unit":{"facts":[{"fact":"species","value":"HIRRUS"},{"fact":"ringedSpecies","value":"HIRRUS"},{"fact":"age","value":"1"},{"fact":"ageDeterminationMethod","value":"V"}],"unitId":"http://tun.fi/KE.67/5205304#Unit"},"gathering":{"facts":[{"fact":"type","value":"ringing"},{"fact":"eventDate","value":"6.9.2002"},{"fact":"hour","value":"2"},{"fact":"country","value":"FINLAND"},{"fact":"province","value":"TURKU-PORI"},{"fact":"euringProvinceCode","value":"SF86"},{"fact":"municipality","value":"PORI"},{"fact":"countryCode","value":"SF"},{"fact":"elyCentreCode","value":"2"},{"fact":"elyCentre","value":"Varsinais-Suomen
        ELY"},{"fact":"finnishProvinceCode","value":"4"},{"fact":"finnishProvince","value":"Satakunta"},{"fact":"finnishOldCountyCode","value":"2"},{"fact":"finnishOldCounty","value":"TURKU
        - PORI, FINLAND"},{"fact":"lylAreaCode","value":"12"},{"fact":"lylArea","value":"Porin
        Lintutieteellinen Yhdistys r.y."},{"fact":"currentMunicipality","value":"PORI"},{"fact":"lat","value":"6839200"},{"fact":"lon","value":"3216700"},{"fact":"coordinateSystem","value":"YKJ"},{"fact":"coordinateAccuracy","value":"100"},{"fact":"captureMethod","value":"V"},{"fact":"birdActivities","value":"Y"}]}},{"unit":{"facts":[{"fact":"ageOfYoungsInDays","value":"-1"},{"fact":"species","value":"ACCGEN"},{"fact":"ringedSpecies","value":"ACCGEN"},{"fact":"sex","value":"K"},{"fact":"sexDeterminationMethod","value":"K"},{"fact":"age","value":"PP"},{"fact":"weightInGrams","value":"617"},{"fact":"wingLengthInMillimeters","value":"141"}],"unitId":"http://tun.fi/KE.67/7826118#Unit"}},{"unit":{"facts":[{"fact":"species","value":"CORRAX"},{"fact":"ringedSpecies","value":"CORRAX"},{"fact":"age","value":"PP"},{"fact":"wingLengthInMillimeters","value":"206"}],"unitId":"http://tun.fi/KE.67/10445118#Unit"},"gathering":{"facts":[{"fact":"type","value":"ringing"},{"fact":"eventDate","value":"3.5.2015"},{"fact":"country","value":"FINLAND"},{"fact":"province","value":"KYMI"},{"fact":"euringProvinceCode","value":"SF82"},{"fact":"municipality","value":"MIEHIK"},{"fact":"countryCode","value":"SF"},{"fact":"elyCentreCode","value":"5"},{"fact":"elyCentre","value":"Kaakkois-Suomen
        ELY"},{"fact":"finnishProvinceCode","value":"8"},{"fact":"finnishProvince","value":"Kymenlaakso"},{"fact":"finnishOldCountyCode","value":"5"},{"fact":"finnishOldCounty","value":"KYMI,
        FINLAND"},{"fact":"lylAreaCode","value":"31"},{"fact":"lylArea","value":"Kymenlaakson
        Lintutieteellinen Yhdistys r.y."},{"fact":"currentMunicipality","value":"MIEHIK"},{"fact":"lat","value":"6734700"},{"fact":"lon","value":"3538700"},{"fact":"coordinateSystem","value":"YKJ"},{"fact":"coordinateAccuracy","value":"100"},{"fact":"clutchNumber","value":"2"},{"fact":"clutchNumberOwner","value":"6078BF625E541C668C22244910944E13"}]}},{"unit":{"facts":[{"fact":"species","value":"STUVUL"},{"fact":"ringedSpecies","value":"STUVUL"},{"fact":"age","value":"PP"}],"unitId":"http://tun.fi/KE.67/1657#Unit"},"gathering":{"facts":[{"fact":"type","value":"ringing"},{"fact":"eventDate","value":"7.6.1955"},{"fact":"country","value":"FINLAND"},{"fact":"province","value":"HÄME"},{"fact":"euringProvinceCode","value":"SF80"},{"fact":"municipality","value":"HAUHO"},{"fact":"countryCode","value":"SF"},{"fact":"elyCentreCode","value":"3"},{"fact":"elyCentre","value":"Hämeen
        ELY"},{"fact":"finnishProvinceCode","value":"5"},{"fact":"finnishProvince","value":"Kanta-Häme"},{"fact":"finnishOldCountyCode","value":"4"},{"fact":"finnishOldCounty","value":"HÄME,
        FINLAND"},{"fact":"lylAreaCode","value":"42"},{"fact":"lylArea","value":"Kanta-Hämeen
        Lintutieteellinen Yhdistys r.y."},{"fact":"currentMunicipality","value":"HLINNA"},{"fact":"lat","value":"611000"},{"fact":"lon","value":"243300"},{"fact":"coordinateSystem","value":"WGS84-DMS"},{"fact":"coordinateAccuracy","value":"1000"}]}},{"unit":{"facts":[{"fact":"species","value":"STRALU"},{"fact":"ringedSpecies","value":"STRALU"},{"fact":"age","value":"PP"},{"fact":"wingLengthMinMeasurement","value":"142"}],"unitId":"http://tun.fi/KE.67/10753017#Unit"}},{"unit":{"facts":[{"fact":"species","value":"CARSPI"},{"fact":"ringedSpecies","value":"CARSPI"},{"fact":"sex","value":"K"},{"fact":"sexDeterminationMethod","value":"V"},{"fact":"age","value":"+2"},{"fact":"ageDeterminationMethod","value":"V"},{"fact":"weightInGrams","value":"13.8"},{"fact":"wingLengthInMillimeters","value":"72"},{"fact":"fat","value":"1"}],"unitId":"http://tun.fi/KE.67/10425325#Unit"},"gathering":{"facts":[{"fact":"type","value":"ringing"},{"fact":"eventDate","value":"5.7.2015"},{"fact":"hour","value":"11"},{"fact":"country","value":"FINLAND"},{"fact":"province","value":"TURKU-PORI"},{"fact":"euringProvinceCode","value":"SF86"},{"fact":"municipality","value":"KUSTAV"},{"fact":"locality","value":"HURUHOLMA"},{"fact":"countryCode","value":"SF"},{"fact":"elyCentreCode","value":"2"},{"fact":"elyCentre","value":"Varsinais-Suomen
        ELY"},{"fact":"finnishProvinceCode","value":"2"},{"fact":"finnishProvince","value":"Varsinais-Suomi"},{"fact":"finnishOldCountyCode","value":"2"},{"fact":"finnishOldCounty","value":"TURKU
        - PORI, FINLAND"},{"fact":"lylAreaCode","value":"11"},{"fact":"lylArea","value":"Turun
        Lintutieteellinen Yhdistys r.y."},{"fact":"currentMunicipality","value":"KUSTAV"},{"fact":"lat","value":"6722900"},{"fact":"lon","value":"3198400"},{"fact":"coordinateSystem","value":"YKJ"},{"fact":"coordinateAccuracy","value":"100"},{"fact":"captureMethod","value":"V"}]}},{"unit":{"facts":[{"fact":"species","value":"ACRDUM"},{"fact":"ringedSpecies","value":"ACRDUM"},{"fact":"age","value":"1"},{"fact":"weightInGrams","value":"11.8"},{"fact":"wingLengthInMillimeters","value":"64"},{"fact":"wingLengthAccuracy","value":".5"},{"fact":"fat","value":"1"}],"unitId":"http://tun.fi/KE.67/10958492#Unit"},"gathering":{"facts":[{"fact":"type","value":"ringing"},{"fact":"eventDate","value":"31.8.2016"},{"fact":"hour","value":"9"},{"fact":"country","value":"FINLAND"},{"fact":"province","value":"UUSIMAA"},{"fact":"euringProvinceCode","value":"SF87"},{"fact":"municipality","value":"HELSIN"},{"fact":"countryCode","value":"SF"},{"fact":"elyCentreCode","value":"1"},{"fact":"elyCentre","value":"Uudenmaan
        ELY"},{"fact":"finnishProvinceCode","value":"1"},{"fact":"finnishProvince","value":"Uusimaa"},{"fact":"finnishOldCountyCode","value":"1"},{"fact":"finnishOldCounty","value":"UUSIMAA,
        FINLAND"},{"fact":"lylAreaCode","value":"21"},{"fact":"lylArea","value":"Helsingin
        Seudun Lintutieteellinen Yhdistys - Tringa r.y."},{"fact":"currentMunicipality","value":"HELSIN"},{"fact":"lat","value":"6678800"},{"fact":"lon","value":"3390600"},{"fact":"coordinateSystem","value":"YKJ"},{"fact":"coordinateAccuracy","value":"100"},{"fact":"coordinateMeasurementMethod","value":"MUU"},{"fact":"captureMethod","value":"A"}]}},{"unit":{"facts":[{"fact":"species","value":"FALTIN"},{"fact":"ringedSpecies","value":"FALTIN"},{"fact":"age","value":"PP"},{"fact":"weightInGrams","value":"205"},{"fact":"wingLengthInMillimeters","value":"151"}],"unitId":"http://tun.fi/KE.67/10435888#Unit"},"gathering":{"facts":[{"fact":"type","value":"ringing"},{"fact":"eventDate","value":"6.7.2015"},{"fact":"country","value":"FINLAND"},{"fact":"province","value":"KUOPIO"},{"fact":"euringProvinceCode","value":"SF81"},{"fact":"municipality","value":"POLVIJ"},{"fact":"locality","value":"HAAPONIEMI"},{"fact":"countryCode","value":"SF"},{"fact":"elyCentreCode","value":"8"},{"fact":"elyCentre","value":"Pohjois-Karjalan
        ELY"},{"fact":"finnishProvinceCode","value":"12"},{"fact":"finnishProvince","value":"Pohjois-Karjala"},{"fact":"finnishOldCountyCode","value":"8"},{"fact":"finnishOldCounty","value":"POHJOIS-KARJALA,
        FINLAND"},{"fact":"lylAreaCode","value":"57"},{"fact":"lylArea","value":"Pohjois-Karjalan
        Lintutieteellinen Yhdistys r.y."},{"fact":"currentMunicipality","value":"POLVIJ"},{"fact":"lat","value":"6969200"},{"fact":"lon","value":"3614800"},{"fact":"coordinateSystem","value":"YKJ"},{"fact":"coordinateAccuracy","value":"100"},{"fact":"clutchNumber","value":"6"},{"fact":"clutchNumberOwner","value":"418E639004675E3762740137A338A413"}]}},{"unit":{"facts":[{"fact":"species","value":"ACCGEN"},{"fact":"ringedSpecies","value":"ACCGEN"},{"fact":"sex","value":"N"},{"fact":"sexDeterminationMethod","value":"K"},{"fact":"age","value":"PP"},{"fact":"weightInGrams","value":"1200"},{"fact":"wingLengthInMillimeters","value":"205"}],"unitId":"http://tun.fi/KE.67/10931001#Unit"}},{"unit":{"facts":[{"fact":"species","value":"APUAPU"},{"fact":"ringedSpecies","value":"APUAPU"},{"fact":"age","value":"+1"}],"unitId":"http://tun.fi/KE.67/115#Unit"},"gathering":{"facts":[{"fact":"type","value":"ringing"},{"fact":"eventDate","value":"12.6.1977"},{"fact":"country","value":"FINLAND"},{"fact":"province","value":"HÄME"},{"fact":"euringProvinceCode","value":"SF80"},{"fact":"municipality","value":"KANALA"},{"fact":"countryCode","value":"SF"},{"fact":"elyCentreCode","value":"4"},{"fact":"elyCentre","value":"Pirkanmaan
        ELY"},{"fact":"finnishProvinceCode","value":"6"},{"fact":"finnishProvince","value":"Pirkanmaa"},{"fact":"finnishOldCountyCode","value":"4"},{"fact":"finnishOldCounty","value":"HÄME,
        FINLAND"},{"fact":"lylAreaCode","value":"44"},{"fact":"lylArea","value":"Pirkanmaan
        Lintutieteellinen Yhdistys r.y."},{"fact":"currentMunicipality","value":"KANALA"},{"fact":"lat","value":"612700"},{"fact":"lon","value":"240200"},{"fact":"coordinateSystem","value":"WGS84-DMS"},{"fact":"coordinateAccuracy","value":"1000"},{"fact":"captureMethod","value":"P"},{"fact":"birdActivities","value":"P"}]}}]}'
  recorded_at: 2023-09-28 13:16:16 GMT
  recorded_with: vcr/1.2.2, webmockr/0.9.0
