http_interactions:
- request:
    method: get
    uri: https://apitest.laji.fi/v0/warehouse/query/unit/list?target=&hasMedia=TRUE&selected=unit.unitId%2Cunit.media.fullURL&page=1&pageSize=10&access_token=<finbif_token>
    body:
      encoding: ''
      string: ''
    headers:
      Content-Type: ''
      Accept: application/json
  response:
    status:
      status_code: 200
      category: Success
      reason: OK
      message: 'Success: (200) OK'
    headers:
      date: Mon, 04 Jan 2021 11:18:38 GMT
      content-type: application/json;charset=utf-8
      transfer-encoding: chunked
      access-control-allow-origin: '*'
      access-control-allow-credentials: 'true'
      strict-transport-security: max-age=0; includeSubDomains
      x-download-options: noopen
      via: 1.1 staging.laji.fi
      vary: Accept-Encoding
      content-encoding: gzip
      cache-control: public
      x-frame-options: DENY
      x-xss-protection: 1;mode=block
      x-content-type-options: nosniff
      referrer-policy: no-referrer-when-downgrade
    body:
      encoding: ''
      file: no
      string: '{"currentPage":1,"nextPage":2,"lastPage":5854,"pageSize":10,"total":58540,"results":[{"unit":{"media":[{"fullURL":"https://imagetest.laji.fi/MM.100434/4c0e3443-0c80-4e06-8054-e436f3747e2e.jpg"}],"unitId":"http://tun.fi/JX.185573#13"}},{"unit":{"media":[{"fullURL":"https://imagetest.laji.fi/MM.100374/test_full.jpg"}],"unitId":"http://tun.fi/JX.185386#4"}},{"unit":{"media":[{"fullURL":"https://imagetest.laji.fi/MM.100254/c258c6e1-7a2f-44ab-b668-9d34f34276dd.jpg"}],"unitId":"http://tun.fi/JX.185254#4"}},{"unit":{"media":[{"fullURL":"https://imagetest.laji.fi/MM.100155/a4f7a135-e07d-4a32-99ad-68632f7d5131.jpg"}],"unitId":"http://tun.fi/JX.185200#4"}},{"unit":{"media":[{"fullURL":"https://imagetest.laji.fi/MM.100154/518a6ba5-1569-4449-b174-09c4ca0f2932.jpg"}],"unitId":"http://tun.fi/JX.185199#4"}},{"unit":{"media":[{"fullURL":"https://imagetest.laji.fi/MM.100134/61c1a1cf-5c04-4d8a-a0da-666475e0255d.jpg"}],"unitId":"http://tun.fi/JX.185182#4"}},{"unit":{"media":[{"fullURL":"https://imagetest.laji.fi/MM.100018/b260097f-3068-41e7-b5ca-e8c87ce8bae4.jpg"}],"unitId":"http://tun.fi/JX.184893#4"}},{"unit":{"media":[{"fullURL":"https://proxy.laji.fi/inaturalist/photos/102621848/original.jpeg?1604161144"},{"fullURL":"https://proxy.laji.fi/inaturalist/photos/102621876/original.jpeg?1604161156"},{"fullURL":"https://proxy.laji.fi/inaturalist/photos/102621858/original.jpeg?1604161147"}],"unitId":"http://tun.fi/HR.3211/63895022-U"}},{"unit":{"media":[{"fullURL":"https://proxy.laji.fi/inaturalist/photos/102634028/original.jpg?1604167062"},{"fullURL":"https://proxy.laji.fi/inaturalist/photos/102634052/original.jpg?1604167074"}],"unitId":"http://tun.fi/HR.3211/63899684-U"}},{"unit":{"media":[{"fullURL":"https://proxy.laji.fi/inaturalist/photos/102639841/original.jpeg?1604169697"}],"unitId":"http://tun.fi/HR.3211/63902862-U"}}]}'
  recorded_at: 2022-11-29 09:01:28 GMT
  recorded_with: vcr/1.2.0, webmockr/0.8.2
- request:
    method: get
    uri: https://apitest.laji.fi/v0/warehouse/query/unit/list?hasMedia=TRUE&selected=unit.unitId%2Cunit.media.fullURL&page=1&pageSize=10&access_token=<finbif_token>
    body:
      encoding: ''
      string: ''
    headers:
      Content-Type: ''
      Accept: application/json
  response:
    status:
      status_code: 200
      category: Success
      reason: OK
      message: 'Success: (200) OK'
    headers:
      date: Tue, 05 Jan 2021 09:45:17 GMT
      content-type: application/json;charset=utf-8
      transfer-encoding: chunked
      access-control-allow-origin: '*'
      access-control-allow-credentials: 'true'
      strict-transport-security: max-age=0; includeSubDomains
      x-download-options: noopen
      via: 1.1 staging.laji.fi
      vary: Accept-Encoding
      content-encoding: gzip
      cache-control: public
      x-frame-options: DENY
      x-xss-protection: 1;mode=block
      x-content-type-options: nosniff
      referrer-policy: no-referrer-when-downgrade
    body:
      encoding: ''
      file: no
      string: '{"currentPage":1,"nextPage":2,"lastPage":5854,"pageSize":10,"total":58540,"results":[{"unit":{"media":[{"fullURL":"https://imagetest.laji.fi/MM.100434/4c0e3443-0c80-4e06-8054-e436f3747e2e.jpg"}],"unitId":"http://tun.fi/JX.185573#13"}},{"unit":{"media":[{"fullURL":"https://imagetest.laji.fi/MM.100374/test_full.jpg"}],"unitId":"http://tun.fi/JX.185386#4"}},{"unit":{"media":[{"fullURL":"https://imagetest.laji.fi/MM.100254/c258c6e1-7a2f-44ab-b668-9d34f34276dd.jpg"}],"unitId":"http://tun.fi/JX.185254#4"}},{"unit":{"media":[{"fullURL":"https://imagetest.laji.fi/MM.100155/a4f7a135-e07d-4a32-99ad-68632f7d5131.jpg"}],"unitId":"http://tun.fi/JX.185200#4"}},{"unit":{"media":[{"fullURL":"https://imagetest.laji.fi/MM.100154/518a6ba5-1569-4449-b174-09c4ca0f2932.jpg"}],"unitId":"http://tun.fi/JX.185199#4"}},{"unit":{"media":[{"fullURL":"https://imagetest.laji.fi/MM.100134/61c1a1cf-5c04-4d8a-a0da-666475e0255d.jpg"}],"unitId":"http://tun.fi/JX.185182#4"}},{"unit":{"media":[{"fullURL":"https://imagetest.laji.fi/MM.100018/b260097f-3068-41e7-b5ca-e8c87ce8bae4.jpg"}],"unitId":"http://tun.fi/JX.184893#4"}},{"unit":{"media":[{"fullURL":"https://proxy.laji.fi/inaturalist/photos/102621848/original.jpeg?1604161144"},{"fullURL":"https://proxy.laji.fi/inaturalist/photos/102621876/original.jpeg?1604161156"},{"fullURL":"https://proxy.laji.fi/inaturalist/photos/102621858/original.jpeg?1604161147"}],"unitId":"http://tun.fi/HR.3211/63895022-U"}},{"unit":{"media":[{"fullURL":"https://proxy.laji.fi/inaturalist/photos/102634028/original.jpg?1604167062"},{"fullURL":"https://proxy.laji.fi/inaturalist/photos/102634052/original.jpg?1604167074"}],"unitId":"http://tun.fi/HR.3211/63899684-U"}},{"unit":{"media":[{"fullURL":"https://proxy.laji.fi/inaturalist/photos/102639841/original.jpeg?1604169697"}],"unitId":"http://tun.fi/HR.3211/63902862-U"}}]}'
  recorded_at: 2022-11-29 09:01:28 GMT
  recorded_with: vcr/1.2.0, webmockr/0.8.2
- request:
    method: get
    uri: https://apitest.laji.fi/v0/warehouse/query/unit/list?hasMedia=TRUE&selected=unit.unitId%2Cunit.media.fullURL&orderBy=RANDOM&page=1&pageSize=10&access_token=<finbif_token>
    body:
      encoding: ''
      string: ''
    headers:
      Content-Type: ''
      Accept: application/json
  response:
    status:
      status_code: 200
      category: Success
      reason: OK
      message: 'Success: (200) OK'
    headers:
      date: Tue, 05 Jan 2021 09:50:10 GMT
      content-type: application/json;charset=utf-8
      transfer-encoding: chunked
      access-control-allow-origin: '*'
      access-control-allow-credentials: 'true'
      strict-transport-security: max-age=0; includeSubDomains
      x-download-options: noopen
      via: 1.1 staging.laji.fi
      vary: Accept-Encoding
      content-encoding: gzip
      cache-control: public
      x-frame-options: DENY
      x-xss-protection: 1;mode=block
      x-content-type-options: nosniff
      referrer-policy: no-referrer-when-downgrade
    body:
      encoding: ''
      file: no
      string: '{"currentPage":1,"nextPage":2,"lastPage":5854,"pageSize":10,"total":58540,"results":[{"unit":{"media":[{"fullURL":"https://proxy.laji.fi/inaturalist/photos/87806262/original.jpeg?1596378550"}],"unitId":"http://tun.fi/HR.3211/55155208-U"}},{"unit":{"media":[{"fullURL":"https://proxy.laji.fi/inaturalist/photos/99455506/original.jpg?1602240245"}],"unitId":"http://tun.fi/HR.3211/62100337-U"}},{"unit":{"media":[{"fullURL":"https://proxy.laji.fi/inaturalist/photos/93962701/original.jpeg?1599488942"}],"unitId":"http://tun.fi/HR.3211/58836460-U"}},{"unit":{"media":[{"fullURL":"https://proxy.laji.fi/inaturalist/photos/92404454/original.jpg?1598694534"},{"fullURL":"https://proxy.laji.fi/inaturalist/photos/92404503/original.jpg?1598694579"}],"unitId":"http://tun.fi/HR.3211/57904920-U"}},{"unit":{"media":[{"fullURL":"https://proxy.laji.fi/inaturalist/photos/88151592/original.jpeg?1596520989"}],"unitId":"http://tun.fi/HR.3211/55362644-U"}},{"unit":{"media":[{"fullURL":"https://proxy.laji.fi/inaturalist/photos/7499639/original.jpg?1493402455"}],"unitId":"http://tun.fi/HR.3211/5996900-U"}},{"unit":{"media":[{"fullURL":"https://proxy.laji.fi/inaturalist/photos/93544461/original.jpeg?1599298438"}],"unitId":"http://tun.fi/HR.3211/58585269-U"}},{"unit":{"media":[{"fullURL":"https://proxy.laji.fi/inaturalist/photos/67882955/original.jpeg?1587467725"},{"fullURL":"https://proxy.laji.fi/inaturalist/photos/67882963/original.jpeg?1587467733"},{"fullURL":"https://proxy.laji.fi/inaturalist/photos/67882969/original.jpeg?1587467740"}],"unitId":"http://tun.fi/HR.3211/42743727-U"}},{"unit":{"media":[{"fullURL":"https://proxy.laji.fi/inaturalist/photos/82651573/original.jpeg?1593948175"}],"unitId":"http://tun.fi/HR.3211/52004426-U"}},{"unit":{"media":[{"fullURL":"https://proxy.laji.fi/inaturalist/photos/82202764/original.jpg?1593720759"}],"unitId":"http://tun.fi/HR.3211/51728325-U"}}]}'
  recorded_at: 2022-11-29 09:01:28 GMT
  recorded_with: vcr/1.2.0, webmockr/0.8.2
- request:
    method: get
    uri: https://apitest.laji.fi/v0/warehouse/query/unit/list?hasMedia=TRUE&selected=unit.unitId%2Cunit.media.fullURL&orderBy=RANDOM&page=1&pageSize=10&personEmail=noreply%40laji.fi&access_token=<finbif_token>
    body:
      encoding: ''
      string: ''
    headers:
      Content-Type: ''
      Accept: application/json
  response:
    status:
      status_code: 200
      category: Success
      reason: OK
      message: 'Success: (200) OK'
    headers:
      date: Tue, 29 Nov 2022 09:01:28 GMT
      content-type: application/json;charset=utf-8
      transfer-encoding: chunked
      access-control-allow-origin: '*'
      via: 1.0 staging.laji.fi
      cache-control: no-store
      x-frame-options: DENY
      x-xss-protection: 1;mode=block
      x-content-type-options: nosniff
      strict-transport-security: max-age=31536000;includeSubDomains;preload
      referrer-policy: no-referrer-when-downgrade
    body:
      encoding: ''
      file: no
      string: '{"currentPage":1,"nextPage":2,"lastPage":1634,"pageSize":10,"total":16335,"results":[{"unit":{"media":[{"fullURL":"https://proxy.laji.fi/inaturalist/photos/101018752/original.jpg?1603091525"},{"fullURL":"https://proxy.laji.fi/inaturalist/photos/101018770/original.jpg?1603091540"}],"unitId":"http://tun.fi/HR.3211/62989047-U"}},{"unit":{"media":[{"fullURL":"https://id.digitarium.fi/api/H.1717446/Combined_001-002.jpg"}],"unitId":"http://tun.fi/MY.777202"}},{"unit":{"media":[{"fullURL":"https://luomus.digitarium.fi/MM.42053/HA.H9502195_a.jpg"},{"fullURL":"https://luomus.digitarium.fi/MM.42044/HA.H9502195.jpg"}],"unitId":"http://tun.fi/MY.145102"}},{"unit":{"media":[{"fullURL":"https://id.digitarium.fi/api/EIG.14062/Combined_001-002.jpg"}],"unitId":"http://tun.fi/MY.694258"}},{"unit":{"media":[{"fullURL":"https://proxy.laji.fi/inaturalist/photos/98374966/original.jpg?1601644012"},{"fullURL":"https://proxy.laji.fi/inaturalist/photos/98374975/original.jpg?1601644017"}],"unitId":"http://tun.fi/HR.3211/61472878-U"}},{"unit":{"media":[{"fullURL":"https://proxy.laji.fi/inaturalist/photos/89029750/original.jpeg?1596965353"}],"unitId":"http://tun.fi/HR.3211/55892586-U"}},{"unit":{"media":[{"fullURL":"https://proxy.laji.fi/inaturalist/photos/82452531/original.jpeg?1593849447"}],"unitId":"http://tun.fi/HR.3211/51880683-U"}},{"unit":{"media":[{"fullURL":"https://proxy.laji.fi/inaturalist/photos/93721645/original.jpeg?1599377316"},{"fullURL":"https://proxy.laji.fi/inaturalist/photos/93721650/original.jpeg?1599377325"}],"unitId":"http://tun.fi/HR.3211/58690715-U"}},{"unit":{"media":[{"fullURL":"https://id.digitarium.fi/api/EIG.15908/Combined_001-002.jpg"}],"unitId":"http://tun.fi/MY.700342"}},{"unit":{"media":[{"fullURL":"https://proxy.laji.fi/inaturalist/photos/95669603/original.jpg?1600323738"}],"unitId":"http://tun.fi/HR.3211/59854198-U"}}]}'
  recorded_at: 2022-11-29 09:01:28 GMT
  recorded_with: vcr/1.2.0, webmockr/0.8.2
