http_interactions:
- request:
    method: get
    uri: https://apitest.laji.fi/v0/warehouse/query/unit/list?collectionId=HR.48&selected=unit.unitId%2Cunit.facts.fact%2Cunit.facts.value%2Cgathering.facts.fact%2Cgathering.facts.value%2Cdocument.facts.fact%2Cdocument.facts.value&orderBy=RANDOM&page=1&pageSize=10&access_token=<finbif_token>
    body:
      encoding: ''
      string: ''
    headers:
      Content-Type: ''
      Accept: application/json
  response:
    status:
      status_code: 200
      category: Success
      reason: OK
      message: 'Success: (200) OK'
    headers:
      date: Mon, 12 Sep 2022 15:20:45 GMT
      content-type: application/json;charset=utf-8
      transfer-encoding: chunked
      access-control-allow-origin: '*'
      via: 1.0 staging.laji.fi
      cache-control: no-store
      x-frame-options: DENY
      x-xss-protection: 1;mode=block
      x-content-type-options: nosniff
      strict-transport-security: max-age=31536000;includeSubDomains;preload
      referrer-policy: no-referrer-when-downgrade
    body:
      encoding: UTF-8
      file: no
      string: '{"currentPage":1,"nextPage":2,"lastPage":1180,"pageSize":10,"total":11793,"results":[{"unit":{"facts":[{"fact":"species","value":"FICHYP"},{"fact":"ringedSpecies","value":"FICHYP"},{"fact":"age","value":"PP"},{"fact":"weightInGrams","value":"14.5"},{"fact":"wingLengthInMillimeters","value":"51"}],"unitId":"http://tun.fi/KE.67/10845454#Unit"},"gathering":{"facts":[{"fact":"type","value":"ringing"},{"fact":"eventDate","value":"23.6.2016"},{"fact":"country","value":"FINLAND"},{"fact":"province","value":"VAASA"},{"fact":"euringProvinceCode","value":"SF88"},{"fact":"municipality","value":"JURVA"},{"fact":"countryCode","value":"SF"},{"fact":"elyCentreCode","value":"10"},{"fact":"elyCentre","value":"Etelä-Pohjanmaan
        ELY"},{"fact":"finnishProvinceCode","value":"14"},{"fact":"finnishProvince","value":"Etelä-Pohjanmaa"},{"fact":"finnishOldCountyCode","value":"9"},{"fact":"finnishOldCounty","value":"VAASA,
        FINLAND"},{"fact":"lylAreaCode","value":"72"},{"fact":"lylArea","value":"Suupohjan
        Lintutietieteellinen Yhdistys r.y."},{"fact":"currentMunicipality","value":"KURIKK"},{"fact":"lat","value":"6965900"},{"fact":"lon","value":"3243700"},{"fact":"coordinateSystem","value":"YKJ"},{"fact":"coordinateAccuracy","value":"100"},{"fact":"coordinateMeasurementMethod","value":"GPS"},{"fact":"clutchNumber","value":"12"},{"fact":"clutchNumberOwner","value":"EAA981E663985958262641E6F65B5FC9"}]}},{"unit":{"facts":[{"fact":"ageOfYoungsInDays","value":"10"},{"fact":"ageOfYoungsAccuracy","value":"N"},{"fact":"species","value":"PARMAJ"},{"fact":"ringedSpecies","value":"PARMAJ"},{"fact":"age","value":"PP"},{"fact":"wingLengthInMillimeters","value":"35"}],"unitId":"http://tun.fi/KE.67/11387125#Unit"},"gathering":{"facts":[{"fact":"type","value":"ringing"},{"fact":"eventDate","value":"14.7.2018"},{"fact":"country","value":"FINLAND"},{"fact":"province","value":"KYMI"},{"fact":"euringProvinceCode","value":"SF82"},{"fact":"municipality","value":"VIROLA"},{"fact":"locality","value":"PORO1"},{"fact":"countryCode","value":"SF"},{"fact":"elyCentreCode","value":"5"},{"fact":"elyCentre","value":"Kaakkois-Suomen
        ELY"},{"fact":"finnishProvinceCode","value":"8"},{"fact":"finnishProvince","value":"Kymenlaakso"},{"fact":"finnishOldCountyCode","value":"5"},{"fact":"finnishOldCounty","value":"KYMI,
        FINLAND"},{"fact":"lylAreaCode","value":"31"},{"fact":"lylArea","value":"Kymenlaakson
        Lintutieteellinen Yhdistys r.y."},{"fact":"currentMunicipality","value":"VIROLA"},{"fact":"lat","value":"6708634"},{"fact":"lon","value":"3538026"},{"fact":"coordinateSystem","value":"YKJ"},{"fact":"coordinateAccuracy","value":"1"},{"fact":"coordinateMeasurementMethod","value":"KARTTA"},{"fact":"clutchNumber","value":"1"},{"fact":"clutchNumberOwner","value":"95FB12439322C31DCB126A7B07350D9C"}]}},{"unit":{"facts":[{"fact":"ageOfYoungsInDays","value":"-1"},{"fact":"species","value":"AEGFUN"},{"fact":"ringedSpecies","value":"AEGFUN"},{"fact":"age","value":"PP"},{"fact":"weightInGrams","value":"125"},{"fact":"wingLengthMinMeasurement","value":"80"}],"unitId":"http://tun.fi/KE.67/7825802#Unit"}},{"unit":{"facts":[{"fact":"species","value":"STRURA"},{"fact":"ringedSpecies","value":"STRURA"},{"fact":"age","value":"+2"},{"fact":"weightInGrams","value":"1035"},{"fact":"wingLengthMinMeasurement","value":"338"}],"unitId":"http://tun.fi/KE.67/10792051#Unit"}},{"unit":{"facts":[{"fact":"species","value":"ERIRUB"},{"fact":"ringedSpecies","value":"ERIRUB"},{"fact":"age","value":"1"}],"unitId":"http://tun.fi/KE.67/10808283#Unit"},"gathering":{"facts":[{"fact":"type","value":"ringing"},{"fact":"eventDate","value":"14.9.2016"},{"fact":"hour","value":"9"},{"fact":"country","value":"FINLAND"},{"fact":"province","value":"TURKU-PORI"},{"fact":"euringProvinceCode","value":"SF86"},{"fact":"municipality","value":"PARAIN"},{"fact":"birdStation","value":"JURMO"},{"fact":"locality","value":"MÄNNIKKÖ"},{"fact":"countryCode","value":"SF"},{"fact":"elyCentreCode","value":"2"},{"fact":"elyCentre","value":"Varsinais-Suomen
        ELY"},{"fact":"finnishProvinceCode","value":"2"},{"fact":"finnishProvince","value":"Varsinais-Suomi"},{"fact":"finnishOldCountyCode","value":"2"},{"fact":"finnishOldCounty","value":"TURKU
        - PORI, FINLAND"},{"fact":"lylAreaCode","value":"11"},{"fact":"lylArea","value":"Turun
        Lintutieteellinen Yhdistys r.y."},{"fact":"currentMunicipality","value":"PARAIN"},{"fact":"lat","value":"6647900"},{"fact":"lon","value":"3198300"},{"fact":"coordinateSystem","value":"YKJ"},{"fact":"coordinateAccuracy","value":"100"},{"fact":"captureMethod","value":"V"}]}},{"unit":{"facts":[{"fact":"species","value":"ERIRUB"},{"fact":"ringedSpecies","value":"ERIRUB"},{"fact":"age","value":"+2"}],"unitId":"http://tun.fi/KE.67/10548758#Unit"},"gathering":{"facts":[{"fact":"type","value":"ringing"},{"fact":"eventDate","value":"27.4.2015"},{"fact":"hour","value":"14"},{"fact":"country","value":"FINLAND"},{"fact":"province","value":"TURKU-PORI"},{"fact":"euringProvinceCode","value":"SF86"},{"fact":"municipality","value":"PARAIN"},{"fact":"birdStation","value":"JURMO"},{"fact":"locality","value":"MÄNNIKKÖ"},{"fact":"countryCode","value":"SF"},{"fact":"elyCentreCode","value":"2"},{"fact":"elyCentre","value":"Varsinais-Suomen
        ELY"},{"fact":"finnishProvinceCode","value":"2"},{"fact":"finnishProvince","value":"Varsinais-Suomi"},{"fact":"finnishOldCountyCode","value":"2"},{"fact":"finnishOldCounty","value":"TURKU
        - PORI, FINLAND"},{"fact":"lylAreaCode","value":"11"},{"fact":"lylArea","value":"Turun
        Lintutieteellinen Yhdistys r.y."},{"fact":"currentMunicipality","value":"PARAIN"},{"fact":"lat","value":"6647900"},{"fact":"lon","value":"3198300"},{"fact":"coordinateSystem","value":"YKJ"},{"fact":"coordinateAccuracy","value":"100"},{"fact":"captureMethod","value":"W"}]}},{"unit":{"facts":[{"fact":"species","value":"STRALU"},{"fact":"ringedSpecies","value":"STRALU"},{"fact":"age","value":"PP"},{"fact":"weightInGrams","value":"305"},{"fact":"wingLengthInMillimeters","value":"73"}],"unitId":"http://tun.fi/KE.67/10731002#Unit"}},{"unit":{"facts":[{"fact":"species","value":"PARMAJ"},{"fact":"ringedSpecies","value":"PARMAJ"},{"fact":"age","value":"PP"}],"unitId":"http://tun.fi/KE.67/11338531#Unit"},"gathering":{"facts":[{"fact":"type","value":"ringing"},{"fact":"eventDate","value":"30.5.2018"},{"fact":"hour","value":"8"},{"fact":"country","value":"FINLAND"},{"fact":"province","value":"TURKU-PORI"},{"fact":"euringProvinceCode","value":"SF86"},{"fact":"municipality","value":"SALO"},{"fact":"locality","value":"KÄRKKÄ"},{"fact":"countryCode","value":"SF"},{"fact":"elyCentreCode","value":"2"},{"fact":"elyCentre","value":"Varsinais-Suomen
        ELY"},{"fact":"finnishProvinceCode","value":"2"},{"fact":"finnishProvince","value":"Varsinais-Suomi"},{"fact":"finnishOldCountyCode","value":"2"},{"fact":"finnishOldCounty","value":"TURKU
        - PORI, FINLAND"},{"fact":"lylAreaCode","value":"11"},{"fact":"lylArea","value":"Turun
        Lintutieteellinen Yhdistys r.y."},{"fact":"currentMunicipality","value":"SALO"},{"fact":"lat","value":"602141"},{"fact":"lon","value":"230609"},{"fact":"coordinateSystem","value":"WGS84-DMS"},{"fact":"coordinateAccuracy","value":"100"},{"fact":"coordinateMeasurementMethod","value":"KARTTA"},{"fact":"clutchNumber","value":"7"},{"fact":"clutchNumberOwner","value":"6892B13FEA17CDB55C7C314703548A05"}]}},{"unit":{"facts":[{"fact":"species","value":"PANHAL"},{"fact":"ringedSpecies","value":"PANHAL"},{"fact":"age","value":"PP"},{"fact":"weightInGrams","value":"1480"},{"fact":"wingLengthInMillimeters","value":"247"}],"unitId":"http://tun.fi/KE.67/11411376#Unit"}},{"unit":{"facts":[{"fact":"species","value":"BUTBUT"},{"fact":"ringedSpecies","value":"BUTBUT"},{"fact":"age","value":"PP"},{"fact":"wingLengthInMillimeters","value":"173"}],"unitId":"http://tun.fi/KE.67/11076558#Unit"}}]}'
  recorded_at: 2022-09-12 15:20:45 GMT
  recorded_with: vcr/1.0.2, webmockr/0.8.2
