http_interactions:
- request:
    method: get
    uri: https://apitest.laji.fi/v0/warehouse/query/unit/list?selected=unit.unitId%2Cunit.linkings.taxon.informalTaxonGroups&page=1&pageSize=10&access_token=<finbif_token>
    body:
      encoding: ''
      string: ''
    headers:
      Content-Type: ''
      Accept: application/json
  response:
    status:
      status_code: 200
      category: Success
      reason: OK
      message: 'Success: (200) OK'
    headers:
      date: Fri, 09 Sep 2022 10:29:32 GMT
      content-type: application/json;charset=utf-8
      transfer-encoding: chunked
      access-control-allow-origin: '*'
      via: 1.0 staging.laji.fi
      cache-control: no-store
      x-frame-options: DENY
      x-xss-protection: 1;mode=block
      x-content-type-options: nosniff
      strict-transport-security: max-age=31536000;includeSubDomains;preload
      referrer-policy: no-referrer-when-downgrade
    body:
      encoding: UTF-8
      file: no
      string: '{"currentPage":1,"nextPage":2,"lastPage":349741,"pageSize":10,"total":3497401,"results":[{"unit":{"linkings":{"taxon":{"informalTaxonGroups":["http://tun.fi/MVL.2"]}},"unitId":"http://tun.fi/JX.294749#3"}},{"unit":{"linkings":{"taxon":{"informalTaxonGroups":["http://tun.fi/MVL.1"]}},"unitId":"http://tun.fi/JX.294736#3"}},{"unit":{"linkings":{"taxon":{"informalTaxonGroups":["http://tun.fi/MVL.343"]}},"unitId":"http://tun.fi/JX.294707#3"}},{"unit":{"linkings":{"taxon":{"informalTaxonGroups":["http://tun.fi/MVL.232","http://tun.fi/MVL.38"]}},"unitId":"http://tun.fi/JX.294706#3"}},{"unit":{"linkings":{"taxon":{"informalTaxonGroups":["http://tun.fi/MVL.1"]}},"unitId":"http://tun.fi/JX.294654#3"}},{"unit":{"linkings":{"taxon":{"informalTaxonGroups":["http://tun.fi/MVL.1"]}},"unitId":"http://tun.fi/JX.294629#3"}},{"unit":{"linkings":{"taxon":{"informalTaxonGroups":["http://tun.fi/MVL.1"]}},"unitId":"http://tun.fi/JX.294621#3"}},{"unit":{"linkings":{"taxon":{"informalTaxonGroups":["http://tun.fi/MVL.1"]}},"unitId":"http://tun.fi/JX.294617#3"}},{"unit":{"linkings":{"taxon":{"informalTaxonGroups":["http://tun.fi/MVL.41"]}},"unitId":"http://tun.fi/KE.176/62ff4f0d2d0e2114ba6c737d#Unit1"}},{"unit":{"unitId":"http://tun.fi/KE.176/62ff4d6c2d0e251981cce4d3#Unit1"}}]}'
  recorded_at: 2022-09-09 10:29:32 GMT
  recorded_with: vcr/1.0.2, webmockr/0.8.2
