http_interactions:
- request:
    method: get
    uri: https://apitest.laji.fi/v0/taxa/search?query=Cygnus%20cygnus&matchType=exact&limit=1&access_token=<finbif_token>
    body:
      encoding: ''
      string: ''
    headers:
      Content-Type: ''
      Accept: application/json
  response:
    status:
      status_code: 200
      category: Success
      reason: OK
      message: 'Success: (200) OK'
    headers:
      date: Thu, 20 Oct 2022 10:02:25 GMT
      content-type: application/json; charset=utf-8
      content-length: '417'
      access-control-allow-origin: '*'
      access-control-allow-credentials: 'true'
      x-download-options: noopen
      etag: W/"1a1-aQHnKHgFnoS5T5K5/BXa3+U9hdY"
      vary: Accept-Encoding
      cache-control: public
      x-frame-options: DENY
      x-xss-protection: 1;mode=block
      x-content-type-options: nosniff
      strict-transport-security: max-age=31536000;includeSubDomains;preload
      referrer-policy: no-referrer-when-downgrade
    body:
      encoding: UTF-8
      file: no
      string: '[{"matchingName":"Cygnus cygnus","nameType":"MX.scientificName","id":"MX.26280","scientificName":"Cygnus
        cygnus","scientificNameAuthorship":"(Linnaeus, 1758)","taxonRank":"MX.species","cursiveName":true,"finnish":true,"species":true,"vernacularName":{"fi":"laulujoutsen","en":"Whooper
        Swan","sv":"sångsvan"},"informalGroups":[{"id":"MVL.1","name":{"sv":"Fåglar","en":"Birds","fi":"Linnut"}}],"type":"exactMatches"}]'
  recorded_at: 2022-10-20 10:02:27 GMT
  recorded_with: vcr/1.0.2, webmockr/0.8.2
- request:
    method: get
    uri: https://apitest.laji.fi/v0/warehouse/query/unit/list?taxonId=MX.26280&countryId=ML.206&selected=unit.unitId%2Cdocument.loadDate&orderBy=document.loadDate%20DESC&page=1&pageSize=1&access_token=<finbif_token>
    body:
      encoding: ''
      string: ''
    headers:
      Content-Type: ''
      Accept: application/json
  response:
    status:
      status_code: 200
      category: Success
      reason: OK
      message: 'Success: (200) OK'
    headers:
      date: Thu, 20 Oct 2022 10:02:27 GMT
      content-type: application/json;charset=utf-8
      transfer-encoding: chunked
      access-control-allow-origin: '*'
      via: 1.0 staging.laji.fi
      cache-control: no-store
      x-frame-options: DENY
      x-xss-protection: 1;mode=block
      x-content-type-options: nosniff
      strict-transport-security: max-age=31536000;includeSubDomains;preload
      referrer-policy: no-referrer-when-downgrade
    body:
      encoding: UTF-8
      file: no
      string: '{"currentPage":1,"nextPage":2,"lastPage":4909,"pageSize":1,"total":4909,"results":[{"unit":{"unitId":"http://tun.fi/KE.8_1163195#2"},"document":{"loadDate":"2022-09-16"}}]}'
  recorded_at: 2022-10-20 10:02:27 GMT
  recorded_with: vcr/1.0.2, webmockr/0.8.2
