http_interactions:
- request:
    method: GET
    uri: https://apitest.laji.fi/v0/warehouse/query/unit/list?selected=unit.unitId%2Cdocument.loadDate&orderBy=document.loadDate+DESC&page=1&pageSize=1&access_token=<finbif_token>
  response:
    status: 200
    headers:
      date: Mon, 09 Feb 2026 12:24:45 GMT
      content-type: application/json;charset=utf-8
      access-control-allow-origin: '*'
      via: 1.0 staging.laji.fi
      cache-control: no-store
      x-frame-options: DENY
      x-xss-protection: 1;mode=block
      x-content-type-options: nosniff
      strict-transport-security: max-age=31536000;includeSubDomains;preload
      referrer-policy: no-referrer-when-downgrade
    body:
      string: '{"currentPage":1,"nextPage":2,"lastPage":3371571,"pageSize":1,"total":3371571,"cacheTimestamp":1770637049,"results":[{"unit":{"unitId":"http://tun.fi/HR.49/76884_U"},"document":{"loadDate":"2026-02-09"}}]}'
  recorded_at: 2026-02-09 12:25:53
recorded_with: VCR-vcr/2.1.0
